# Blender v2.91.0 OBJ File: ''
# www.blender.org
mtllib statue.mtl
o statue
v 1.068644 -1.498678 0.525902
v 1.032166 -1.477266 0.612301
v 0.835481 -1.500703 0.641430
v 0.875867 -1.496058 0.658529
v 1.017802 -1.417953 0.567750
v 0.862001 -1.398271 0.569322
v 0.772144 -1.425164 0.564690
v 0.610881 -1.504709 0.303411
v 0.726235 -1.488264 0.532685
v 1.079703 -1.452618 0.480160
v 1.002704 -1.367690 0.475239
v 0.660365 -1.421131 0.448895
v -0.012726 1.077370 0.537092
v 0.088070 1.168519 0.475683
v -0.013019 1.224699 0.538260
v -0.078635 1.076065 0.544202
v -0.120325 1.194194 0.542440
v -0.208537 1.328566 0.484723
v -0.219828 1.102588 0.482166
v 0.760758 -1.321080 0.409479
v 0.646510 -1.348434 0.404228
v 0.019578 1.383798 0.424926
v -0.096911 1.458295 0.443031
v -0.044750 1.008051 0.453829
v -0.162452 1.030479 0.467309
v -0.347137 1.213478 0.426779
v 1.080992 -1.480814 0.400641
v 0.576311 -1.458550 0.377804
v 0.068262 1.048979 0.428001
v -0.061015 0.915307 0.313350
v -0.301144 1.524955 0.384978
v -0.458020 1.409486 0.339625
v -0.388410 -1.486774 0.430240
v -0.604858 -1.432226 0.431963
v -0.693728 -1.489623 0.431882
v 1.050587 -1.498780 0.361354
v 0.766772 -1.504360 -0.335472
v 0.898981 -1.309160 0.331758
v 0.447409 -1.407383 0.386588
v 0.306020 -1.390813 0.389550
v 0.202017 -1.343313 0.333899
v 0.311264 -1.437432 0.353687
v 0.399578 0.189828 0.371277
v 0.166707 0.316833 0.394994
v 0.349036 -0.017792 0.374037
v 0.128201 -1.449766 0.360792
v -0.006404 -1.412241 0.380067
v 0.165369 1.033119 0.280645
v 0.158949 1.090975 0.301294
v 0.079695 1.476413 0.270522
v -0.142404 0.175116 0.429654
v 0.051109 0.007161 0.398128
v -0.114989 0.456043 0.391012
v 0.070114 0.458134 0.381906
v -0.062505 1.566841 0.344961
v -0.221096 -0.031494 0.398014
v -0.285041 0.273634 0.409923
v -0.270950 0.971307 0.349730
v -0.310710 0.042755 0.393452
v -0.262799 1.688091 0.318735
v -0.336306 -1.435674 0.374311
v -0.346717 -1.361382 0.353155
v -0.429515 0.296862 0.365369
v -0.630584 -1.380494 0.372831
v -0.429840 -1.329305 0.329102
v -0.723164 -1.502169 0.382254
v -0.327694 -1.503665 0.325592
v -0.743792 -1.489112 0.362409
v 1.010255 -1.360047 0.277606
v 0.655569 0.076602 0.337727
v 0.437727 0.462734 0.344754
v 0.476569 -1.484358 0.272967
v 0.451878 -1.283513 0.275078
v 0.603175 -0.047313 0.295399
v 0.611272 -0.016700 0.329248
v 0.329971 0.534148 0.331552
v 0.195076 -0.085800 0.329080
v 0.089550 0.953248 0.276022
v 0.162517 1.148961 0.248804
v 0.144726 1.328544 0.242146
v 0.042727 -0.261814 0.299061
v 0.014648 0.561491 0.336290
v -0.123056 -1.354303 0.342231
v -0.115184 -0.221901 0.327658
v -0.113978 -1.421357 0.319247
v 0.009688 0.687348 0.272621
v -0.230484 -1.389199 0.342619
v -0.089151 1.710897 0.260732
v -0.215955 -1.464874 0.298207
v -0.189654 0.905622 0.303894
v -0.401416 -0.139086 0.283408
v -0.325391 0.500445 0.354954
v -0.394180 0.996774 0.313434
v -0.443895 1.035777 0.300255
v -0.505388 1.617635 0.290482
v -0.539212 -1.315345 0.258230
v 0.993315 -1.498349 0.152919
v 0.784568 0.058202 0.250396
v 0.768420 0.167544 0.285563
v 0.568226 0.550814 0.284760
v 0.412435 -0.119127 0.238553
v 0.273581 0.609780 0.231441
v 0.043961 -1.231589 0.278620
v 0.036943 -1.468662 0.261613
v -0.164163 0.747317 0.284177
v -0.146557 -1.497430 0.220202
v -0.280317 -1.262168 0.208589
v -0.268874 -0.271628 0.250254
v -0.430350 0.716751 0.252133
v -0.465054 1.756098 0.265110
v -0.519794 -0.029529 0.269204
v -0.533977 0.569482 0.260856
v -0.604201 0.314311 0.273736
v -0.520647 1.124491 0.243597
v -0.521337 1.346409 0.275940
v -0.608693 1.526775 0.223732
v -0.688938 -1.392460 0.272610
v 1.033744 -1.463410 0.189861
v 0.871121 -1.257459 0.164663
v 0.846256 0.132642 0.143868
v 0.707588 -1.223060 0.200125
v 0.767183 0.325074 0.204756
v 0.695737 0.493782 0.213000
v 0.642713 0.558722 0.223077
v 0.510130 0.602639 0.167458
v 0.343945 -0.196788 0.214281
v 0.273704 -1.501613 0.170839
v 0.175353 -0.281854 0.259220
v 0.117094 -0.359080 0.231976
v 0.151923 0.894666 0.210931
v -0.001773 1.699232 0.205019
v 0.121990 0.798588 0.218478
v -0.096574 0.823916 0.276503
v -0.253013 1.810505 0.245747
v -0.079646 1.834597 0.170965
v -0.325234 0.831345 0.253870
v -0.516435 0.962123 0.240972
v -0.541595 1.741544 0.234577
v -0.683923 0.457084 0.209201
v -0.746897 -1.441425 0.148761
v 0.558430 -0.135256 0.135077
v 0.677188 -0.090952 0.085224
v 0.279656 -1.114657 0.175922
v 0.450552 -0.545462 0.147350
v 0.258825 -0.514589 0.163890
v 0.263380 1.017282 0.155483
v 0.250875 1.084048 0.130308
v 0.074417 -1.111466 0.146191
v 0.138232 1.421780 0.109584
v 0.081178 1.621787 0.145724
v -0.049649 -1.155102 0.151180
v -0.081443 -0.441116 0.154966
v -0.150503 1.873544 0.138440
v -0.501638 -0.317658 0.144013
v -0.373352 -0.409395 0.118739
v -0.371410 1.876935 0.158968
v -0.576031 0.822363 0.205410
v -0.657868 -0.216274 0.135935
v -0.595208 1.274269 0.137387
v -0.665466 -0.062070 0.185721
v -0.668355 0.957045 0.174709
v -0.614963 1.675036 0.179487
v -0.583477 -1.296505 0.114342
v -0.729711 0.559863 0.183580
v -0.743006 -1.484387 0.034201
v 0.987484 -1.387667 0.052328
v 0.776020 -1.170794 0.090988
v 0.651311 -1.119332 0.165783
v 0.790635 0.008838 0.098156
v 0.728802 0.561764 0.063196
v 0.627427 -0.865928 0.164324
v 0.556039 -0.786512 0.183783
v 0.333079 -1.054983 0.167144
v 0.336588 -0.577290 0.165290
v 0.268570 -0.771319 0.167599
v 0.530260 -0.515765 0.120296
v 0.496900 -0.242519 0.132119
v 0.443276 0.641681 0.153470
v 0.318318 0.883129 0.117703
v 0.173142 1.190471 0.066072
v 0.029646 1.755237 0.059210
v -0.278467 -1.164068 0.104553
v -0.439301 -1.228911 0.100468
v -0.544481 1.831292 0.134742
v -0.502975 1.890398 0.074025
v -0.618319 1.185595 0.120405
v -0.701999 -1.504689 0.012640
v -0.614371 1.783492 0.077371
v -0.714990 1.000289 0.135144
v -0.676382 1.540457 0.016740
v -0.876512 0.355816 0.108836
v -0.894582 0.761132 0.127534
v 0.944162 -1.320590 -0.038262
v 0.897573 -1.259398 0.021602
v 0.897284 0.279676 -0.104642
v 0.746895 -1.046584 0.075152
v 0.712499 -0.870091 0.079982
v 0.615137 -0.651537 0.100937
v 0.631636 0.636643 0.013347
v 0.640376 -0.231935 0.051779
v 0.483712 0.778369 0.085720
v 0.435144 0.898771 0.043616
v -0.035199 -0.593364 0.103693
v 0.143322 1.232387 0.020822
v -0.062948 -1.003816 0.110143
v -0.317178 -0.806560 0.066596
v -0.293137 -0.626188 0.063136
v -0.234356 1.926915 0.011274
v -0.661132 1.356109 -0.018819
v -0.596184 -1.294037 -0.034236
v -0.748645 1.088505 0.052344
v -0.857059 -0.233440 0.038912
v -0.902848 -0.106141 0.044762
v -0.954052 0.130786 0.025530
v -0.967455 0.861591 0.070308
v 0.931898 -1.494182 -0.084242
v 0.830963 -0.004722 -0.019770
v 0.700700 -0.717793 0.013623
v 0.694653 -0.495642 -0.010220
v 0.415675 1.017724 -0.022139
v 0.260247 1.117647 -0.017260
v 0.102713 1.596456 -0.007502
v -0.085710 1.889424 -0.061146
v -0.320103 -1.030518 0.066171
v -0.386165 -1.159342 0.058570
v -0.454780 -0.724221 0.020435
v -0.392704 1.929881 -0.050817
v -0.431754 -0.927261 0.031541
v -0.638163 -0.497578 0.021325
v -0.572311 1.858470 -0.006408
v -0.642987 1.296146 -0.021987
v -0.664394 1.708982 -0.063231
v -0.772718 -0.374938 0.025860
v -0.675438 1.191399 0.007773
v -1.078655 0.379889 -0.010294
v -1.062977 0.614852 0.016843
v 0.886589 0.140803 -0.044827
v 0.855055 0.418237 -0.144666
v 0.837309 -1.155067 -0.101765
v 0.806047 0.593135 -0.161779
v 0.761032 -0.859874 -0.037747
v 0.830747 -0.087996 -0.081125
v 0.589677 0.830069 -0.023053
v 0.111258 1.275223 -0.130136
v -0.190555 1.934559 -0.078499
v -0.440385 -1.032731 -0.000036
v -0.449493 -1.139799 -0.016116
v -0.511863 -1.215242 -0.038990
v -0.530737 -0.808798 -0.047263
v -0.668599 1.241310 -0.134493
v -0.690262 -1.417322 -0.053029
v -0.949620 1.039296 -0.082796
v -0.982863 -0.154200 -0.034153
v -1.075225 0.792171 -0.017325
v -1.114617 0.654109 -0.039910
v 0.906845 -1.370803 -0.206413
v 0.793876 -1.049358 -0.102225
v 0.754250 -0.652918 -0.156270
v 0.773224 -0.375986 -0.094020
v 0.724309 0.654881 -0.094202
v 0.607552 -1.504441 -0.410381
v 0.563767 0.949813 -0.114074
v 0.105648 1.516377 -0.105373
v -0.478251 -1.125808 -0.088992
v -0.689835 -1.486218 -0.073999
v -0.759925 -0.484458 -0.098197
v -0.959127 -0.316196 -0.120619
v -1.126869 0.132428 -0.120073
v 0.921910 0.229307 -0.179610
v 0.672261 0.830937 -0.154133
v 0.188690 1.167267 -0.187637
v 0.048594 1.667126 -0.188065
v -0.042786 1.822934 -0.189361
v -0.481364 -1.014572 -0.090816
v -0.563951 1.842667 -0.145337
v -0.684644 -0.626705 -0.111147
v -0.828046 1.141704 -0.127923
v -1.069279 -0.114699 -0.129157
v -1.073798 0.899963 -0.179270
v -1.159967 0.417811 -0.127373
v -1.142069 0.705262 -0.174840
v 0.902639 -1.273788 -0.154891
v 0.910404 -0.000047 -0.255561
v 0.841255 -0.250702 -0.198378
v 0.538214 1.018200 -0.207007
v -0.137334 1.884422 -0.195200
v -0.558893 -0.846660 -0.125331
v -0.569164 -1.294036 -0.224204
v -0.648043 -1.423924 -0.169665
v -0.666864 1.442147 -0.222699
v -0.669935 1.638282 -0.217077
v -0.766560 -0.526777 -0.170262
v -0.878964 1.118162 -0.202961
v -1.005587 0.997964 -0.210654
v -1.051472 -0.207754 -0.194756
v 0.838000 -1.178015 -0.272661
v 0.783926 -0.991757 -0.299580
v 0.791909 -0.445421 -0.181613
v -0.501724 -1.505174 -0.359655
v 0.046290 1.288221 -0.287070
v -0.282209 1.884623 -0.279109
v -0.429396 1.874446 -0.260795
v -0.660751 -0.702779 -0.255059
v -0.659545 1.224299 -0.314409
v -0.619512 -1.486367 -0.227061
v -1.128800 -0.012721 -0.214502
v 0.807478 -1.484745 -0.303460
v 0.705520 0.801167 -0.234458
v 0.417769 1.087838 -0.311426
v 0.080246 1.235900 -0.270108
v -0.522505 -1.246627 -0.359981
v -0.494457 -1.120235 -0.405274
v -0.519168 -0.990710 -0.281290
v -0.594684 -1.420505 -0.278153
v -0.630851 1.275366 -0.329704
v -0.630285 1.687496 -0.293079
v -0.837142 -0.458183 -0.267072
v -0.961176 -0.343388 -0.277507
v -1.168937 0.187008 -0.292668
v -1.173861 0.517139 -0.253031
v 0.898906 0.411732 -0.342328
v 0.849786 -0.258125 -0.299984
v 0.876874 -0.087164 -0.339995
v 0.840558 0.567228 -0.313563
v 0.781209 -0.484621 -0.308728
v 0.752889 -0.751244 -0.373018
v 0.768010 0.681800 -0.379316
v 0.543990 1.001951 -0.287570
v 0.164870 1.164742 -0.326818
v 0.005860 1.617832 -0.357283
v -0.081190 1.798334 -0.288328
v -0.550100 1.771933 -0.311983
v -0.998187 0.883599 -0.411464
v -1.090372 -0.130609 -0.324550
v 0.912541 0.225586 -0.390721
v 0.479422 1.005917 -0.407720
v -0.137878 -1.505011 -0.718652
v -0.374153 1.820821 -0.376899
v -0.512562 -1.008897 -0.452511
v -0.557176 -1.478921 -0.360229
v -0.612569 1.520077 -0.412451
v -0.827431 -0.450699 -0.383704
v -0.812905 1.107120 -0.397738
v -1.079916 0.761379 -0.374219
v -1.126110 0.630218 -0.382204
v -1.145489 0.406420 -0.403532
v 0.751443 -1.082164 -0.422535
v -0.056508 1.242262 -0.444484
v -0.243963 1.805857 -0.390480
v -0.492779 -1.358325 -0.480841
v -0.550321 -0.876429 -0.477683
v -0.639741 -0.646381 -0.508686
v -0.604968 1.188145 -0.444955
v -0.940957 -0.321519 -0.413319
v 0.871806 0.137455 -0.480844
v 0.893608 0.307497 -0.487406
v 0.797819 -0.282729 -0.439492
v 0.848894 0.477524 -0.473158
v 0.680687 -1.190045 -0.481158
v 0.734071 -0.770738 -0.450159
v 0.757295 -0.487105 -0.481180
v 0.334935 1.070585 -0.479815
v 0.194598 1.131321 -0.475064
v 0.013554 1.178898 -0.464194
v -0.070077 1.559258 -0.463858
v -0.091994 1.670292 -0.432144
v -0.533210 1.661606 -0.445653
v -0.570422 1.246446 -0.442815
v -1.038346 -0.137198 -0.437824
v -1.099305 0.163296 -0.499330
v 0.791132 0.543660 -0.512844
v 0.622483 -1.471928 -0.447682
v 0.632892 0.746036 -0.503350
v 0.531228 -1.484899 -0.539330
v -0.278809 1.653632 -0.527075
v -0.359041 1.712473 -0.485578
v -0.461767 -1.135152 -0.541772
v -0.463134 -1.467410 -0.512593
v -0.711397 1.100633 -0.519201
v -0.753348 -0.478824 -0.513005
v -0.971403 -0.113481 -0.546119
v -1.037007 0.658396 -0.504696
v -1.079404 0.278069 -0.529969
v 0.822822 0.382970 -0.581547
v 0.774593 -0.075697 -0.532754
v 0.590565 -1.004233 -0.548422
v 0.678956 -0.727743 -0.524484
v 0.724238 -0.424368 -0.597442
v 0.471091 -1.230919 -0.592874
v 0.542391 -1.386533 -0.527380
v -0.157646 1.209155 -0.525327
v -0.175943 1.157384 -0.578156
v -0.180660 1.338446 -0.522109
v -0.170519 1.605644 -0.514133
v -0.382074 -1.504549 -0.543126
v -0.473874 1.622901 -0.507192
v -0.456708 1.208561 -0.515669
v -0.515140 1.489480 -0.510598
v -0.877719 -0.320590 -0.511460
v -0.880163 0.893109 -0.552833
v 0.568605 -0.674592 -0.613409
v 0.369438 0.912476 -0.605600
v 0.216596 1.073422 -0.580161
v 0.067933 1.096623 -0.635707
v -0.346794 1.178742 -0.547458
v -0.312842 1.311735 -0.539586
v -0.419728 1.574751 -0.552469
v -0.403666 1.395973 -0.551694
v -0.501598 -0.835692 -0.614530
v -0.529587 1.085462 -0.637242
v -0.637075 -0.466872 -0.691783
v 0.649214 0.503602 -0.710796
v 0.709019 -0.241645 -0.652829
v 0.639150 0.592584 -0.608799
v 0.654932 -0.481986 -0.644897
v 0.460657 -1.452696 -0.608521
v 0.395534 -0.998318 -0.653095
v 0.293535 -1.263368 -0.700241
v 0.177900 -1.503287 -0.811986
v -0.334101 1.503224 -0.575390
v -0.390479 -1.464033 -0.594247
v -0.433668 -1.017439 -0.611709
v -0.556923 -0.649365 -0.663473
v -0.608886 1.018932 -0.665994
v -0.944431 0.461447 -0.635731
v 0.684566 0.084407 -0.747622
v 0.639707 -0.039382 -0.736663
v 0.332555 -1.491414 -0.669023
v 0.240241 0.812651 -0.766180
v -0.266985 1.056989 -0.724075
v -0.331351 -1.096927 -0.665556
v -0.604827 0.826892 -0.776648
v -0.726599 -0.226883 -0.751157
v -0.802106 0.638502 -0.711841
v -0.874050 0.092688 -0.696324
v 0.633206 -0.271158 -0.738298
v 0.474442 0.616796 -0.708534
v 0.353778 -0.608331 -0.745599
v 0.276058 -1.430014 -0.760250
v 0.137890 0.914553 -0.765718
v -0.145060 1.006576 -0.767698
v -0.219975 -1.480456 -0.705828
v -0.216798 -1.431995 -0.720057
v -0.682491 0.497303 -0.825604
v -0.850822 0.247740 -0.732552
v 0.646439 0.361767 -0.775700
v 0.549108 0.528354 -0.776404
v 0.346812 -0.396462 -0.850963
v 0.247398 0.630938 -0.847668
v 0.215327 -1.481189 -0.818638
v 0.143858 -1.255201 -0.784390
v 0.079378 -0.937674 -0.809698
v -0.107012 -1.187680 -0.763843
v -0.157251 -0.996277 -0.782090
v -0.337846 -0.840169 -0.761096
v -0.382746 0.970633 -0.797068
v -0.413418 -0.621631 -0.822251
v -0.712941 0.026554 -0.818253
v 0.562131 0.041030 -0.824090
v 0.458994 0.507609 -0.830791
v 0.124694 -0.551028 -0.866256
v -0.067847 -1.459287 -0.800329
v -0.430446 0.847194 -0.856408
v -0.496801 -0.363899 -0.916695
v 0.523133 0.370218 -0.843217
v 0.474562 -0.005339 -0.870909
v 0.381128 -0.225871 -0.888952
v 0.335192 0.504956 -0.876232
v 0.075682 -1.275890 -0.794202
v 0.069496 -1.483226 -0.842279
v -0.012369 -0.975939 -0.815647
v -0.035662 0.891042 -0.829256
v 0.004147 -1.426384 -0.829571
v -0.217439 -0.751268 -0.855657
v -0.278557 0.751454 -0.937169
v -0.624360 0.261810 -0.895204
v 0.023248 -0.506367 -0.929092
v 0.074531 0.619791 -0.930149
v -0.051468 -0.638120 -0.903234
v -0.138658 0.654020 -0.969440
v -0.389506 0.598842 -0.965060
v 0.262213 0.086708 -0.954863
v 0.163952 0.344258 -0.965658
v 0.121248 -0.286588 -1.011506
v -0.222208 -0.619279 -0.913477
v -0.335884 -0.480916 -0.963604
v -0.452958 -0.224888 -1.000107
v 0.105499 -0.126563 -1.023459
v 0.162699 -0.017968 -0.986583
v -0.134000 -0.425025 -1.001101
v -0.324695 -0.346215 -1.034281
v -0.471755 0.274295 -0.998080
v -0.386004 0.086715 -1.051103
v -0.401854 -0.099037 -1.053326
v -0.036231 0.276273 -1.029438
v -0.044149 -0.274067 -1.070824
v -0.198248 0.449778 -1.023570
v -0.332891 0.415683 -1.028644
v -0.056960 -0.159571 -1.084224
v -0.199866 0.161121 -1.069957
v -0.270389 -0.279057 -1.078981
v -0.245816 -0.118127 -1.097121
vt 0.242450 0.997710
vt 0.242340 0.993670
vt 0.245030 0.971950
vt 0.405660 0.746110
vt 0.426340 0.746110
vt 0.409570 0.748450
vt 0.245140 0.976360
vt 0.234680 0.992200
vt 0.232110 0.975170
vt 0.234610 0.965360
vt 0.357140 0.818370
vt 0.316300 0.817700
vt 0.331060 0.817270
vt 0.326020 0.810420
vt 0.743590 0.768870
vt 0.738110 0.774000
vt 0.741450 0.758370
vt 0.733870 0.761970
vt 0.226860 0.990720
vt 0.341600 0.810790
vt 0.091280 0.440440
vt 0.081410 0.452080
vt 0.075180 0.440480
vt 0.091370 0.433200
vt 0.078450 0.428780
vt 0.063830 0.420070
vt 0.088350 0.418750
vt 0.726710 0.770150
vt 0.219520 0.964780
vt 0.387930 0.708280
vt 0.431070 0.737740
vt 0.221940 0.952500
vt 0.346230 0.803200
vt 0.058080 0.445370
vt 0.049900 0.432670
vt 0.098710 0.437870
vt 0.096190 0.425070
vt 0.076300 0.405940
vt 0.740220 0.781740
vt 0.351970 0.815330
vt 0.917910 0.517530
vt 0.905330 0.514150
vt 0.914820 0.503470
vt 0.922030 0.509580
vt 0.108420 0.437690
vt 0.042830 0.411580
vt 0.055310 0.395510
vt 0.234090 0.842050
vt 0.227730 0.819260
vt 0.233480 0.809890
vt 0.486820 0.842070
vt 0.485040 0.836710
vt 0.484920 0.826230
vt 0.413320 0.645350
vt 0.216770 0.979840
vt 0.357150 0.812820
vt 0.225050 0.916180
vt 0.227160 0.931260
vt 0.218370 0.905650
vt 0.229080 0.916990
vt 0.056840 0.927580
vt 0.043090 0.902560
vt 0.078980 0.921980
vt 0.230010 0.897520
vt 0.226140 0.883100
vt 0.919690 0.535960
vt 0.913620 0.533760
vt 0.873320 0.532800
vt 0.882840 0.515590
vt 0.058120 0.869050
vt 0.076070 0.889950
vt 0.027770 0.872600
vt 0.027730 0.892450
vt 0.038540 0.437570
vt 0.079710 0.860940
vt 0.047180 0.854150
vt 0.102310 0.415000
vt 0.071610 0.851540
vt 0.025610 0.416650
vt 0.227470 0.848370
vt 0.219120 0.847620
vt 0.044110 0.839490
vt 0.220770 0.817560
vt 0.214950 0.839280
vt 0.251510 0.696760
vt 0.284920 0.706610
vt 0.253910 0.702300
vt 0.292440 0.696770
vt 0.740080 0.723090
vt 0.739970 0.732740
vt 0.725410 0.730620
vt 0.741330 0.726210
vt 0.232070 0.782410
vt 0.234180 0.775200
vt 0.234840 0.779720
vt 0.723540 0.789530
vt 0.431710 0.720670
vt 0.069030 0.955120
vt 0.027470 0.932080
vt 0.232490 0.935010
vt 0.232730 0.945020
vt 0.211430 0.932560
vt 0.081680 0.949600
vt 0.078830 0.950330
vt 0.019610 0.920710
vt 0.085440 0.905880
vt 0.927930 0.532480
vt 0.907550 0.538800
vt 0.888730 0.538600
vt 0.103400 0.889910
vt 0.016330 0.887080
vt 0.218780 0.871280
vt 0.104420 0.454080
vt 0.099260 0.872940
vt 0.225270 0.872450
vt 0.002610 0.887310
vt 0.222130 0.859950
vt 0.023510 0.435800
vt 0.228990 0.862000
vt 0.109320 0.424170
vt 0.239780 0.802530
vt 0.232390 0.797920
vt 0.235280 0.790140
vt 0.089420 0.843460
vt 0.022520 0.850750
vt 0.233390 0.849930
vt 0.099440 0.402470
vt 0.848310 0.971480
vt 0.836710 0.997240
vt 0.824340 0.985200
vt 0.844010 0.967510
vt 0.033230 0.391360
vt 0.211540 0.828980
vt 0.429040 0.698560
vt 0.716050 0.778070
vt 0.070280 0.969240
vt 0.564080 0.780420
vt 0.552150 0.776290
vt 0.561210 0.765070
vt 0.235810 0.949050
vt 0.058990 0.967510
vt 0.017850 0.946470
vt 0.088260 0.929610
vt 0.010940 0.915560
vt 0.204930 0.889600
vt 0.229240 0.888900
vt 0.132620 0.445470
vt 0.126120 0.427010
vt 0.157780 0.430760
vt 0.230650 0.870190
vt 0.205610 0.856560
vt 0.103170 0.857730
vt 0.152530 0.408910
vt 0.128940 0.399440
vt 0.018600 0.396060
vt 0.563360 0.751280
vt 0.572600 0.727820
vt 0.583490 0.735670
vt 0.014410 0.830230
vt 0.144410 0.388390
vt 0.536200 0.742350
vt 0.535090 0.723750
vt 0.834070 0.957820
vt 0.809220 0.961060
vt 0.802260 0.970830
vt 0.506080 0.726650
vt 0.788680 0.951170
vt 0.778770 0.963580
vt 0.714530 0.724760
vt 0.726650 0.717600
vt 0.740900 0.783750
vt 0.734320 0.799100
vt 0.707800 0.792260
vt 0.556050 0.793990
vt 0.204120 0.959990
vt 0.534610 0.783950
vt 0.515780 0.779310
vt 0.509040 0.765640
vt 0.508450 0.775480
vt 0.011640 0.940990
vt 0.096010 0.922480
vt 0.231110 0.914440
vt 0.105230 0.904280
vt 0.112860 0.898340
vt 0.110570 0.461250
vt 0.864100 0.518980
vt 0.850540 0.534780
vt 0.120730 0.457950
vt 0.118010 0.434290
vt 0.849520 0.525400
vt 0.012940 0.418710
vt 0.010880 0.437890
vt 0.116940 0.410500
vt 0.102910 0.390690
vt 0.852200 0.957690
vt 0.763520 0.963490
vt 0.764770 0.956210
vt 0.519290 0.713020
vt 0.731620 0.702330
vt 0.488410 0.864420
vt 0.485050 0.858690
vt 0.207350 0.977310
vt 0.502910 0.773400
vt 0.088960 0.945600
vt 0.083950 0.958330
vt 0.191140 0.915310
vt 0.131760 0.933850
vt 0.128390 0.913680
vt 0.921490 0.552440
vt 0.097600 0.473560
vt 0.095980 0.462130
vt 0.914470 0.554130
vt 0.355760 0.689800
vt 0.338780 0.707260
vt 0.330800 0.695720
vt 0.189620 0.894190
vt 0.140950 0.473720
vt 0.879210 0.550360
vt 0.858440 0.544310
vt 0.193910 0.881240
vt 0.837000 0.534040
vt 0.119890 0.878340
vt 0.006970 0.430850
vt 0.106080 0.835020
vt 0.115480 0.848570
vt 0.006470 0.407480
vt 0.117510 0.384980
vt 0.095190 0.819090
vt 0.817200 0.943450
vt 0.593900 0.707060
vt 0.577190 0.711480
vt 0.852870 0.942600
vt 0.772000 0.946620
vt 0.711470 0.708600
vt 0.507870 0.707940
vt 0.144780 0.369280
vt 0.103210 0.375940
vt 0.242800 0.716760
vt 0.239050 0.746880
vt 0.236700 0.727660
vt 0.477760 0.874100
vt 0.472240 0.852110
vt 0.196460 0.967620
vt 0.192400 0.954310
vt 0.568750 0.794950
vt 0.573860 0.766090
vt 0.508220 0.795150
vt 0.165900 0.952040
vt 0.157790 0.944500
vt 0.184890 0.921000
vt 0.135130 0.921770
vt 0.155230 0.914470
vt 0.128420 0.942380
vt 0.100020 0.939060
vt 0.007370 0.934050
vt 0.137380 0.492210
vt 0.111710 0.479510
vt 0.903350 0.555930
vt 0.845060 0.549520
vt 0.193220 0.858170
vt 0.199360 0.841670
vt 0.754950 0.946490
vt 0.750970 0.958600
vt 0.748840 0.943100
vt 0.827110 0.940430
vt 0.259170 0.659330
vt 0.760040 0.936920
vt 0.847990 0.936080
vt 0.787180 0.927340
vt 0.531550 0.691860
vt 0.123350 0.353340
vt 0.470800 0.885040
vt 0.706930 0.807050
vt 0.713860 0.815210
vt 0.539440 0.820100
vt 0.695610 0.793760
vt 0.681580 0.793680
vt 0.688400 0.779950
vt 0.660940 0.778970
vt 0.662100 0.791450
vt 0.578230 0.789650
vt 0.637350 0.784300
vt 0.142410 0.951250
vt 0.962890 0.585120
vt 0.961730 0.561910
vt 0.966250 0.564220
vt 0.592550 0.775300
vt 0.592680 0.790540
vt 0.586400 0.759640
vt 0.098160 0.954480
vt 0.122770 0.496990
vt 0.110000 0.492260
vt 0.134980 0.883600
vt 0.823240 0.669460
vt 0.818940 0.675070
vt 0.809050 0.655310
vt 0.799390 0.667510
vt 0.001220 0.796950
vt 0.065310 0.796950
vt 0.022030 0.802850
vt 0.177420 0.880400
vt 0.155690 0.854860
vt 0.137150 0.857470
vt 0.002270 0.423700
vt 0.005650 0.395030
vt 0.807950 0.924760
vt 0.709470 0.693930
vt 0.837950 0.926190
vt 0.244300 0.712240
vt 0.239720 0.747360
vt 0.597510 0.685990
vt 0.583760 0.683830
vt 0.557300 0.678960
vt 0.864090 0.914520
vt 0.875550 0.924480
vt 0.489940 0.889920
vt 0.570030 0.808150
vt 0.645060 0.797010
vt 0.621100 0.799040
vt 0.621840 0.777970
vt 0.971570 0.585960
vt 0.947270 0.570430
vt 0.097460 0.490750
vt 0.921660 0.576700
vt 0.911010 0.567970
vt 0.095600 0.775050
vt 0.861420 0.559150
vt 0.832290 0.554410
vt 0.833490 0.533460
vt 0.178640 0.854460
vt 0.191490 0.847730
vt 0.146140 0.841460
vt 0.002430 0.408180
vt 0.167130 0.843560
vt 0.700880 0.715500
vt 0.122590 0.822860
vt 0.752180 0.931440
vt 0.814690 0.925490
vt 0.768470 0.920550
vt 0.612130 0.689720
vt 0.623760 0.697150
vt 0.826380 0.926340
vt 0.529660 0.667870
vt 0.502630 0.671590
vt 0.892670 0.903270
vt 0.897890 0.939620
vt 0.554680 0.813840
vt 0.523960 0.821410
vt 0.693100 0.814940
vt 0.504740 0.820250
vt 0.660780 0.804990
vt 0.578700 0.813690
vt 0.941970 0.586250
vt 0.934290 0.571710
vt 0.814540 0.690410
vt 0.828350 0.550670
vt 0.829010 0.540610
vt 0.676800 0.719040
vt 0.678490 0.706190
vt 0.691780 0.714600
vt 0.690010 0.704110
vt 0.667340 0.709670
vt 0.699110 0.698390
vt 0.655380 0.696770
vt 0.507470 0.612620
vt 0.503260 0.594520
vt 0.510230 0.609260
vt 0.584600 0.616170
vt 0.585340 0.623180
vt 0.578850 0.602350
vt 0.575540 0.623440
vt 0.572850 0.611500
vt 0.235280 0.705500
vt 0.219360 0.701760
vt 0.843470 0.900980
vt 0.589530 0.671320
vt 0.872160 0.899280
vt 0.888180 0.894530
vt 0.477710 0.902910
vt 0.426410 0.673460
vt 0.680960 0.812570
vt 0.637600 0.815550
vt 0.608820 0.811260
vt 0.961170 0.600230
vt 0.398310 0.635350
vt 0.929090 0.593160
vt 0.789490 0.688620
vt 0.781310 0.679960
vt 0.194830 0.778710
vt 0.212380 0.778710
vt 0.213180 0.789030
vt 0.688170 0.695750
vt 0.645650 0.707470
vt 0.731940 0.684640
vt 0.735530 0.692030
vt 0.734580 0.691650
vt 0.243120 0.703440
vt 0.622960 0.678720
vt 0.606810 0.664500
vt 0.557820 0.654140
vt 0.919680 0.899540
vt 0.544810 0.828370
vt 0.968080 0.611060
vt 0.942020 0.602840
vt 0.905930 0.579320
vt 0.899030 0.558480
vt 0.773890 0.699120
vt 0.765360 0.677740
vt 0.758160 0.703820
vt 0.751900 0.694350
vt 0.676230 0.695460
vt 0.511450 0.595620
vt 0.526270 0.609340
vt 0.637370 0.681930
vt 0.820780 0.913340
vt 0.831800 0.904260
vt 0.585340 0.656850
vt 0.859390 0.883880
vt 0.915310 0.883100
vt 0.881940 0.879820
vt 0.525280 0.651420
vt 0.466410 0.898340
vt 0.569150 0.834330
vt 0.451550 0.897080
vt 0.595610 0.824810
vt 0.921770 0.600120
vt 0.752360 0.708950
vt 0.747890 0.701010
vt 0.659110 0.687890
vt 0.221040 0.682370
vt 0.208990 0.696440
vt 0.236500 0.692030
vt 0.566110 0.612970
vt 0.545450 0.617440
vt 0.555980 0.594000
vt 0.533720 0.594920
vt 0.627050 0.671560
vt 0.834390 0.894030
vt 0.848050 0.885300
vt 0.595150 0.651730
vt 0.456200 0.913130
vt 0.672690 0.829790
vt 0.615890 0.820220
vt 0.285070 0.624250
vt 0.825760 0.691720
vt 0.813270 0.708000
vt 0.506580 0.950610
vt 0.503500 0.960890
vt 0.502680 0.939820
vt 0.507900 0.966230
vt 0.508220 0.576790
vt 0.643820 0.670010
vt 0.580570 0.584530
vt 0.822640 0.897150
vt 0.243430 0.684850
vt 0.573770 0.644970
vt 0.489190 0.917480
vt 0.490840 0.922710
vt 0.435260 0.918760
vt 0.945220 0.611960
vt 0.914340 0.602690
vt 0.818690 0.704740
vt 0.507120 0.934690
vt 0.216420 0.666820
vt 0.199150 0.689920
vt 0.684080 0.666060
vt 0.672170 0.675850
vt 0.236240 0.678630
vt 0.574780 0.581400
vt 0.528040 0.585270
vt 0.619610 0.658290
vt 0.608500 0.649640
vt 0.550900 0.635050
vt 0.903410 0.870250
vt 0.524360 0.841890
vt 0.595870 0.834460
vt 0.356270 0.915790
vt 0.338080 0.918270
vt 0.328240 0.908370
vt 0.507380 0.835980
vt 0.380190 0.920180
vt 0.374950 0.907580
vt 0.646160 0.834730
vt 0.618970 0.830960
vt 0.970720 0.626780
vt 0.957980 0.628470
vt 0.865520 0.668920
vt 0.843520 0.682720
vt 0.841660 0.675440
vt 0.834230 0.691590
vt 0.826110 0.705790
vt 0.778910 0.716750
vt 0.760680 0.714700
vt 0.515680 0.929030
vt 0.518810 0.578810
vt 0.217810 0.381960
vt 0.236210 0.381960
vt 0.193990 0.392950
vt 0.592830 0.608560
vt 0.618460 0.622950
vt 0.606900 0.615640
vt 0.620340 0.595270
vt 0.107510 0.715570
vt 0.086060 0.718820
vt 0.100010 0.705430
vt 0.513390 0.638580
vt 0.304100 0.921460
vt 0.302590 0.900650
vt 0.283060 0.917660
vt 0.843200 0.697480
vt 0.327350 0.592950
vt 0.512840 0.961070
vt 0.202410 0.661010
vt 0.187300 0.674340
vt 0.191010 0.657570
vt 0.242830 0.668590
vt 0.546810 0.572490
vt 0.133440 0.683070
vt 0.157870 0.685330
vt 0.133470 0.694970
vt 0.593970 0.585470
vt 0.122410 0.701700
vt 0.634960 0.603980
vt 0.650670 0.606000
vt 0.641470 0.627590
vt 0.063600 0.713940
vt 0.038010 0.701640
vt 0.024660 0.718530
vt 0.011370 0.702770
vt 0.002180 0.724360
vt 0.445930 0.932170
vt 0.879230 0.679320
vt 0.818200 0.727440
vt 0.514290 0.947070
vt 0.514060 0.562480
vt 0.229530 0.653450
vt 0.177320 0.657370
vt 0.244330 0.665460
vt 0.153520 0.659650
vt 0.584570 0.568600
vt 0.120640 0.687160
vt 0.314080 0.932390
vt 0.295340 0.931990
vt 0.359460 0.932010
vt 0.276020 0.933170
vt 0.265390 0.918230
vt 0.252640 0.928590
vt 0.456950 0.941440
vt 0.412040 0.936020
vt 0.409420 0.927630
vt 0.381700 0.938020
vt 0.836220 0.711700
vt 0.829730 0.718210
vt 0.824770 0.725920
vt 0.785170 0.730190
vt 0.773740 0.728370
vt 0.760540 0.731720
vt 0.530910 0.564770
vt 0.581440 0.985930
vt 0.572120 0.987750
vt 0.575080 0.982240
vt 0.577970 0.566840
vt 0.100850 0.690910
vt 0.066710 0.688870
vt 0.268500 0.940200
vt 0.485630 0.941020
vt 0.488260 0.938220
vt 0.872040 0.698510
vt 0.486240 0.954440
vt 0.528690 0.930660
vt 0.530140 0.951520
vt 0.523960 0.960080
vt 0.529850 0.978700
vt 0.204910 0.646010
vt 0.241260 0.648660
vt 0.594600 0.567440
vt 0.136520 0.665970
vt 0.097920 0.676010
vt 0.647140 0.588140
vt 0.053120 0.684640
vt 0.007830 0.684920
vt 0.286880 0.945110
vt 0.337090 0.942470
vt 0.435920 0.952730
vt 0.407220 0.946110
vt 0.375420 0.951130
vt 0.895090 0.690930
vt 0.458500 0.962830
vt 0.475810 0.952820
vt 0.578810 0.937820
vt 0.582010 0.918880
vt 0.584480 0.940030
vt 0.575190 0.926470
vt 0.564670 0.940440
vt 0.540630 0.928310
vt 0.535390 0.939540
vt 0.299960 0.607280
vt 0.533740 0.972700
vt 0.243730 0.641230
vt 0.258440 0.377890
vt 0.232200 0.377080
vt 0.582220 0.553230
vt 0.550330 0.557240
vt 0.535350 0.555340
vt 0.120350 0.673620
vt 0.619000 0.573940
vt 0.400580 0.960430
vt 0.853470 0.721900
vt 0.835980 0.727060
vt 0.593420 0.896860
vt 0.591010 0.913360
vt 0.587060 0.899180
vt 0.582250 0.958620
vt 0.567650 0.954990
vt 0.579080 0.970430
vt 0.538780 0.967070
vt 0.558450 0.965120
vt 0.548380 0.977100
vt 0.173220 0.641350
vt 0.592680 0.979320
vt 0.119310 0.773620
vt 0.148000 0.773620
vt 0.131170 0.776520
vt 0.596140 0.545280
vt 0.134770 0.641570
vt 0.272970 0.967010
vt 0.355570 0.957500
vt 0.262680 0.957580
vt 0.381190 0.959290
vt 0.889280 0.708320
vt 0.482190 0.964630
vt 0.760880 0.510580
vt 0.762690 0.531640
vt 0.726600 0.512990
vt 0.459720 0.981760
vt 0.360780 0.588070
vt 0.546520 0.957760
vt 0.815240 0.615500
vt 0.810530 0.624080
vt 0.812270 0.616810
vt 0.240180 0.636770
vt 0.192070 0.637750
vt 0.153830 0.639750
vt 0.603850 0.546850
vt 0.030790 0.665860
vt 0.319910 0.968440
vt 0.333090 0.969510
vt 0.283730 0.802720
vt 0.294450 0.802720
vt 0.271820 0.812120
vt 0.786390 0.523310
vt 0.864300 0.743590
vt 0.484310 0.976670
vt 0.484110 0.997710
vt 0.595710 0.950830
vt 0.199310 0.626900
vt 0.626000 0.535390
vt 0.109120 0.640880
vt 0.648630 0.553090
vt 0.073580 0.655220
vt 0.009340 0.649870
vt 0.358560 0.969770
vt 0.259630 0.975680
vt 0.886210 0.726420
vt 0.722010 0.536450
vt 0.477810 0.988210
vt 0.792710 0.542610
vt 0.853150 0.748470
vt 0.611370 0.905750
vt 0.601300 0.937440
vt 0.239280 0.616860
vt 0.240120 0.611350
vt 0.812020 0.598640
vt 0.816910 0.598870
vt 0.774300 0.611230
vt 0.025330 0.631360
vt 0.055420 0.650310
vt 0.288980 0.973450
vt 0.269950 0.978560
vt 0.684570 0.505760
vt 0.706160 0.503560
vt 0.700450 0.537330
vt 0.884170 0.751000
vt 0.482690 0.996630
vt 0.821990 0.555280
vt 0.819720 0.551160
vt 0.816600 0.538170
vt 0.794060 0.559210
vt 0.759810 0.566690
vt 0.786370 0.586980
vt 0.765830 0.592810
vt 0.748380 0.612860
vt 0.172080 0.618070
vt 0.605550 0.964190
vt 0.149650 0.616170
vt 0.600110 0.988300
vt 0.080110 0.633490
vt 0.324030 0.982130
vt 0.656930 0.869520
vt 0.643370 0.893360
vt 0.643990 0.868050
vt 0.718090 0.562100
vt 0.812450 0.544430
vt 0.020420 0.520910
vt 0.020420 0.532970
vt 0.013000 0.537970
vt 0.817060 0.582540
vt 0.619610 0.969880
vt 0.621740 0.988710
vt 0.122680 0.611340
vt 0.672340 0.862210
vt 0.672630 0.848610
vt 0.708870 0.857680
vt 0.654170 0.859560
vt 0.742250 0.849840
vt 0.714690 0.867350
vt 0.681990 0.533590
vt 0.739670 0.877680
vt 0.657630 0.883390
vt 0.796640 0.566770
vt 0.820740 0.567410
vt 0.819850 0.589880
vt 0.764230 0.576880
vt 0.614300 0.925340
vt 0.234420 0.588980
vt 0.234550 0.599890
vt 0.814190 0.574680
vt 0.740410 0.600150
vt 0.630630 0.953200
vt 0.725550 0.621960
vt 0.664620 0.534580
vt 0.052380 0.620870
vt 0.714340 0.573690
vt 0.645230 0.912990
vt 0.728630 0.581890
vt 0.641730 0.937390
vt 0.648170 0.965830
vt 0.658910 0.997510
vt 0.705530 0.891320
vt 0.676620 0.902690
vt 0.690930 0.563010
vt 0.726880 0.601160
vt 0.712410 0.614450
vt 0.133780 0.598030
vt 0.106830 0.600630
vt 0.673000 0.564970
vt 0.730680 0.909060
vt 0.717830 0.902570
vt 0.706610 0.591850
vt 0.698420 0.613840
vt 0.685340 0.975110
vt 0.070830 0.592080
vt 0.092180 0.592600
vt 0.050000 0.602110
vt 0.685080 0.925610
vt 0.690590 0.582070
vt 0.665390 0.944270
vt 0.669430 0.959650
vt 0.119010 0.590400
vt 0.677780 0.583700
vt 0.698770 0.944430
vt 0.735440 0.927790
vt 0.691480 0.608010
vt 0.707190 0.965540
vt 0.684240 0.628310
vt 0.670710 0.623070
vt 0.673380 0.605480
vt 0.731060 0.949570
vt 0.728390 0.967160
vn 0.1593 -0.9860 0.0502
vn 0.1386 -0.9792 0.1479
vn -0.0138 -0.9905 0.1371
vn 0.1173 -0.9931 -0.0072
vn -0.0422 0.6493 0.7593
vn 0.1541 0.6170 0.7717
vn 0.1230 0.7373 0.6643
vn -0.4459 0.4664 0.7640
vn -0.1173 0.7776 0.6177
vn -0.5454 0.4178 0.7267
vn -0.1327 -0.9768 0.1678
vn -0.4060 -0.8740 0.2670
vn -0.6937 0.1706 0.6997
vn 0.9753 -0.0153 0.2203
vn 0.9471 0.2954 0.1254
vn 0.8751 0.3089 0.3724
vn 0.7597 0.5712 0.3108
vn 0.3846 0.8826 0.2702
vn -0.5920 0.2921 0.7511
vn 0.4068 -0.4344 0.8036
vn 0.8348 0.0699 0.5460
vn 0.2408 0.2372 0.9411
vn -0.1327 -0.4104 0.9022
vn -0.2826 0.0528 0.9578
vn -0.2737 0.2679 0.9238
vn -0.4608 -0.3619 0.8104
vn -0.0341 0.8838 0.4666
vn -0.2647 0.6792 0.6846
vn 0.5886 0.4567 0.6670
vn 0.1780 0.4792 0.8595
vn 0.1729 -0.8114 0.5583
vn -0.2506 -0.7203 0.6468
vn -0.5711 -0.0986 0.8150
vn 0.9839 -0.1630 0.0737
vn -0.6835 0.2040 0.7008
vn 0.5941 -0.5885 0.5484
vn 0.1084 -0.6616 0.7420
vn -0.2475 0.3088 0.9184
vn -0.5376 0.0679 0.8405
vn 0.3274 0.2789 0.9028
vn -0.0543 0.5307 0.8458
vn 0.0055 -0.0099 0.9999
vn 0.5367 -0.8380 -0.0985
vn 0.5655 -0.8224 -0.0615
vn 0.1744 -0.9722 -0.1561
vn 0.2861 0.9270 0.2425
vn -0.3132 -0.8224 0.4749
vn -0.2386 -0.7142 0.6580
vn -0.1162 -0.6773 0.7265
vn -0.2175 0.4805 0.8496
vn -0.0098 -0.2562 0.9666
vn 0.0025 -0.4868 0.8735
vn -0.0292 0.6276 0.7780
vn -0.0910 0.6671 0.7394
vn 0.0085 -0.8120 0.5835
vn 0.1306 0.0307 0.9910
vn 0.0912 0.0798 0.9926
vn 0.1141 -0.3780 0.9187
vn -0.0212 -0.8310 0.5558
vn -0.2242 -0.4063 0.8858
vn 0.7295 -0.3380 0.5946
vn 0.8833 0.1428 0.4465
vn 0.8014 0.3832 0.4593
vn -0.0127 -0.0209 0.9997
vn 0.0771 -0.3143 0.9462
vn 0.0103 0.2757 0.9612
vn 0.0659 0.2910 0.9544
vn 0.5364 0.4992 0.6805
vn -0.1370 -0.2865 0.9482
vn -0.1810 0.0911 0.9793
vn -0.2629 -0.6819 0.6826
vn -0.3323 -0.1619 0.9292
vn 0.0244 0.4803 0.8768
vn 0.4296 0.2964 0.8530
vn 0.1676 0.3942 0.9036
vn -0.3683 0.0835 0.9259
vn -0.4099 0.7793 0.4740
vn -0.0340 0.8039 0.5938
vn -0.1268 -0.9867 0.1018
vn 0.1410 -0.9547 0.2620
vn 0.0103 -0.9709 0.2393
vn 0.1668 -0.9544 0.2474
vn -0.7105 0.6322 0.3091
vn -0.5202 0.6192 0.5881
vn -0.7550 -0.3700 0.5413
vn -0.1215 0.9349 -0.3335
vn 0.7541 0.6565 -0.0173
vn 0.3079 -0.0778 0.9482
vn 0.1829 0.1932 0.9640
vn -0.1684 -0.8498 0.4995
vn -0.0183 0.7068 0.7072
vn 0.3718 -0.8021 0.4673
vn 0.3499 -0.5135 0.7835
vn 0.0893 0.5748 0.8134
vn 0.2171 -0.4887 0.8450
vn -0.0334 0.6239 0.7808
vn 0.4281 -0.6453 0.6327
vn 0.9186 0.2903 0.2682
vn 0.9639 0.2287 0.1365
vn 0.1451 -0.4142 0.8985
vn 0.0908 0.5245 0.8466
vn -0.0291 0.6426 0.7657
vn -0.0892 -0.4896 0.8674
vn -0.0399 -0.6589 0.7512
vn -0.0978 -0.2788 0.9554
vn 0.1743 0.2913 0.9406
vn 0.1617 -0.2257 0.9607
vn 0.3650 0.5226 0.7705
vn 0.3049 -0.6756 0.6713
vn -0.1253 -0.5196 0.8452
vn 0.4193 -0.3983 0.8158
vn -0.3400 -0.4005 0.8509
vn -0.2156 0.2662 0.9395
vn 0.5607 0.2808 0.7789
vn -0.3874 -0.4524 0.8033
vn -0.5595 -0.1912 0.8065
vn -0.4626 0.1799 0.8681
vn -0.2755 0.9101 0.3096
vn 0.1100 -0.9932 -0.0388
vn 0.6966 -0.4490 0.5595
vn 0.6442 0.1412 0.7517
vn 0.4113 0.3105 0.8570
vn 0.2356 -0.7163 0.6568
vn 0.2160 0.5981 0.7718
vn 0.1182 0.8985 0.4228
vn -0.0848 0.6515 0.7539
vn -0.0732 -0.9093 0.4097
vn -0.1711 -0.9123 0.3720
vn -0.0342 0.2329 0.9719
vn 0.1652 -0.8081 0.5654
vn -0.1540 0.8017 0.5775
vn -0.1968 -0.5713 0.7968
vn -0.1956 0.2195 0.9558
vn -0.2441 0.5301 0.8121
vn -0.4415 -0.2288 0.8676
vn -0.3515 0.1747 0.9198
vn -0.4787 -0.0077 0.8779
vn -0.6873 0.0018 0.7263
vn -0.7469 -0.1152 0.6549
vn -0.8085 -0.0223 0.5880
vn -0.6136 0.7696 0.1766
vn 0.9619 -0.1646 -0.2181
vn 0.4490 0.8600 0.2425
vn 0.9381 -0.1190 0.3254
vn 0.1842 0.7054 0.6844
vn 0.8724 0.3058 0.3813
vn 0.7209 0.3772 0.5814
vn 0.6701 0.4563 0.5855
vn 0.2584 0.8654 0.4293
vn 0.4018 -0.2435 0.8827
vn -0.0568 -0.9150 0.3994
vn 0.2336 -0.3232 0.9170
vn -0.0129 -0.5099 0.8601
vn 0.4483 -0.2868 0.8466
vn 0.6659 0.4901 0.5624
vn 0.3151 0.1338 0.9396
vn 0.1081 -0.1284 0.9858
vn 0.0903 0.6627 0.7434
vn 0.4954 0.7067 0.5051
vn -0.1766 -0.1446 0.9736
vn -0.4067 -0.1697 0.8977
vn -0.6233 0.3902 0.6777
vn -0.4433 0.0874 0.8921
vn -0.8413 0.5402 -0.0208
vn 0.7401 -0.6409 -0.2037
vn 0.2126 0.9470 0.2410
vn 0.4133 -0.6311 0.6564
vn 0.6069 -0.5903 0.5322
vn -0.0113 0.4788 0.8779
vn 0.2157 -0.0243 0.9762
vn -0.0527 -0.2558 0.9653
vn 0.7470 0.0448 0.6633
vn 0.7574 0.5443 0.3607
vn -0.1313 0.4599 0.8782
vn 0.9853 0.1694 0.0215
vn 0.8883 0.3749 0.2653
vn -0.1805 0.5715 0.8005
vn -0.1274 -0.4778 0.8692
vn 0.2221 0.9052 0.3624
vn -0.2652 -0.4723 0.8406
vn -0.1806 -0.4398 0.8797
vn -0.1095 0.8477 0.5190
vn -0.2620 0.0532 0.9636
vn -0.3576 -0.3547 0.8639
vn -0.9110 -0.0862 0.4033
vn -0.4695 -0.1938 0.8614
vn -0.4299 0.1664 0.8874
vn -0.8901 0.2210 0.3986
vn -0.5420 0.8258 0.1560
vn -0.3967 0.0245 0.9176
vn -0.9605 0.1686 -0.2213
vn -0.9967 -0.0808 -0.0035
vn 0.9556 0.1634 -0.2452
vn 0.6549 0.5875 0.4754
vn 0.3885 0.2050 0.8984
vn 0.6976 -0.6527 0.2956
vn 0.6390 0.6668 0.3836
vn 0.5861 0.1488 0.7965
vn 0.1845 0.1151 0.9761
vn -0.0585 0.1219 0.9908
vn -0.0333 0.0572 0.9978
vn -0.1281 0.0180 0.9916
vn 0.4772 0.0374 0.8780
vn 0.4834 0.0319 0.8748
vn 0.3967 0.4786 0.7833
vn 0.4670 0.2438 0.8500
vn 0.8312 0.5544 0.0417
vn 0.8289 0.5501 0.1011
vn -0.2634 0.4627 0.8465
vn -0.3556 0.8103 0.4658
vn -0.4850 0.7066 0.5153
vn -0.3759 0.8860 0.2713
vn -0.7038 0.4230 0.5707
vn -0.3129 -0.9452 -0.0930
vn -0.7951 0.5297 0.2953
vn -0.4917 0.3859 0.7806
vn -0.9908 0.0113 0.1349
vn -0.5042 -0.0457 0.8624
vn -0.3900 0.0528 0.9193
vn 0.8917 0.4323 -0.1341
vn 0.6931 0.7149 0.0925
vn 0.9438 0.2147 0.2512
vn 0.8378 0.1924 0.5110
vn 0.8072 0.2155 0.5495
vn 0.5963 0.2239 0.7709
vn 0.3747 0.8006 0.4676
vn 0.5823 -0.1494 0.7991
vn 0.5116 0.3471 0.7860
vn 0.4728 0.4701 0.7453
vn -0.1480 -0.1436 0.9785
vn 0.9297 0.3590 -0.0825
vn 0.0113 0.9983 0.0573
vn 0.0211 0.9952 0.0951
vn -0.1504 0.1232 0.9809
vn -0.2237 0.0247 0.9743
vn -0.1954 -0.1324 0.9717
vn 0.0331 0.9718 0.2334
vn -0.9885 -0.1057 0.1080
vn -0.7446 0.6615 -0.0893
vn -0.5795 0.5547 0.5971
vn -0.4842 -0.8747 -0.0189
vn -0.5307 -0.3288 0.7812
vn -0.4946 -0.8591 -0.1318
vn -0.5804 -0.1384 0.8025
vn -0.5698 -0.1168 0.8134
vn -0.5569 0.3390 0.7583
vn 0.8550 -0.3737 -0.3595
vn 0.8040 -0.4671 0.3680
vn 0.8651 0.1891 0.4646
vn 0.7663 0.0287 0.6419
vn 0.6394 0.2549 0.7254
vn 0.6059 0.5699 0.5551
vn 0.5415 0.8247 0.1634
vn 0.0016 0.9998 0.0194
vn 0.9518 0.3039 -0.0416
vn 0.5484 0.8362 0.0091
vn -0.3362 0.0574 0.9400
vn -0.5665 0.3556 0.7434
vn -0.3719 -0.0876 0.9241
vn -0.2020 0.9768 -0.0711
vn -0.4990 -0.0771 0.8632
vn -0.3641 -0.3926 0.8446
vn -0.6542 0.7563 0.0088
vn -0.9488 -0.2336 0.2128
vn -0.9300 0.3676 0.0030
vn -0.5171 -0.4967 0.6971
vn -0.5480 0.7528 0.3648
vn -0.6904 -0.0961 0.7170
vn -0.5959 0.0000 0.8031
vn 0.9542 -0.1546 0.2560
vn 0.9140 0.3164 0.2539
vn 0.8849 0.4557 0.0964
vn 0.8726 0.4223 0.2455
vn 0.9551 0.1633 0.2474
vn 0.8286 -0.2734 0.4886
vn 0.6485 0.4282 0.6293
vn 0.9136 0.3321 -0.2347
vn 0.2028 0.9783 -0.0425
vn -0.7763 -0.0729 0.6262
vn -0.8130 0.2221 0.5383
vn -0.7283 0.6488 0.2203
vn -0.7289 -0.3039 0.6135
vn -0.7473 0.6476 0.1488
vn -0.8948 0.3123 -0.3191
vn -0.6728 0.6538 0.3463
vn -0.6939 -0.2809 0.6630
vn -0.8264 0.2997 0.4767
vn -0.8625 0.0686 0.5014
vn 0.9156 0.0447 -0.3996
vn 0.1441 -0.9881 -0.0547
vn 0.9570 0.2541 0.1398
vn 0.9796 -0.0166 0.2003
vn 0.8490 -0.1498 0.5067
vn 0.6896 0.5119 0.5122
vn 0.1515 -0.9700 -0.1902
vn 0.6741 0.6097 0.4170
vn 0.9628 0.1230 -0.2405
vn -0.9571 0.1862 0.2222
vn -0.5357 -0.8074 -0.2473
vn -0.8957 0.1244 -0.4269
vn -0.7137 -0.5428 0.4428
vn -0.7189 -0.5671 0.4019
vn -0.8277 -0.1464 0.5417
vn 0.9932 0.0484 0.1063
vn 0.7907 0.5080 0.3416
vn 0.6202 0.7816 -0.0669
vn 0.9013 0.3803 -0.2076
vn 0.7287 0.6305 -0.2674
vn -0.9377 -0.2291 0.2612
vn -0.6317 0.7428 -0.2220
vn -0.8042 -0.4914 0.3344
vn -0.5443 0.8122 0.2101
vn -0.8433 -0.3216 0.4305
vn -0.8929 0.4478 -0.0474
vn -0.9507 -0.0126 0.3099
vn -0.9710 0.2197 0.0946
vn 0.9128 0.3600 -0.1927
vn 0.9850 -0.1714 0.0211
vn 0.9444 -0.2135 0.2502
vn 0.6502 0.7450 0.1489
vn 0.4013 0.8501 -0.3411
vn -0.8602 -0.4257 0.2808
vn -0.8419 0.5080 -0.1821
vn -0.9009 0.2735 -0.3370
vn -0.9894 -0.0623 -0.1315
vn -0.9753 0.1355 -0.1745
vn -0.8234 -0.5067 0.2555
vn -0.5872 0.8081 -0.0458
vn -0.7539 0.6403 -0.1474
vn -0.8755 -0.4594 0.1502
vn 0.9268 0.2817 -0.2484
vn 0.9801 0.1635 -0.1125
vn 0.9657 -0.2115 0.1504
vn -0.1756 -0.9788 -0.1052
vn 0.8795 0.1706 -0.4443
vn 0.0873 0.9069 -0.4122
vn -0.3058 0.8787 -0.3665
vn -0.8548 -0.5189 0.0109
vn -0.8126 0.5750 -0.0953
vn -0.6884 0.6785 -0.2563
vn -0.9477 -0.2934 0.1257
vn -0.4412 -0.8676 -0.2293
vn -0.9144 0.0017 -0.4047
vn -0.9533 -0.2587 0.1560
vn 0.7164 -0.2397 -0.6552
vn 0.1744 -0.9722 -0.1560
vn 0.8340 0.5514 0.0185
vn 0.4372 0.8902 -0.1278
vn 0.6932 0.6302 -0.3497
vn -0.9377 0.3089 -0.1589
vn -0.9956 -0.0524 -0.0781
vn -0.9377 -0.3428 0.0559
vn -0.9081 0.1458 -0.3926
vn -0.9263 0.1636 -0.3394
vn -0.8223 0.4412 -0.3595
vn -0.7590 -0.6426 0.1042
vn -0.7643 -0.6423 -0.0571
vn -0.9926 -0.1072 -0.0578
vn -0.9941 0.0833 -0.0689
vn 0.9663 0.2566 0.0197
vn 0.9645 -0.2456 -0.0976
vn 0.9226 -0.1881 -0.3367
vn 0.9009 0.4330 -0.0296
vn 0.9788 -0.1841 -0.0901
vn 0.9921 -0.0266 -0.1223
vn 0.8028 0.5458 -0.2401
vn 0.6977 0.6879 -0.2002
vn 0.4089 0.8842 -0.2260
vn 0.8349 0.2670 -0.4813
vn 0.5129 0.6950 -0.5038
vn -0.5539 0.6800 -0.4804
vn -0.7609 0.4787 -0.4380
vn -0.9047 -0.3795 -0.1934
vn 0.9876 -0.0305 -0.1540
vn 0.6137 0.6549 -0.4410
vn -0.1579 -0.9355 -0.3159
vn -0.2113 0.7638 -0.6099
vn -0.9529 -0.2424 -0.1821
vn -0.8855 -0.0076 -0.4646
vn -0.8661 0.0776 -0.4939
vn -0.7426 -0.6386 -0.2018
vn -0.5749 0.7190 -0.3905
vn -0.8408 0.3712 -0.3940
vn -0.9152 0.2431 -0.3213
vn -0.9143 0.0568 -0.4011
vn 0.8043 0.0154 -0.5940
vn 0.6614 0.3453 -0.6658
vn 0.2059 0.7254 -0.6568
vn -0.8830 0.0349 -0.4681
vn -0.8962 -0.3620 -0.2564
vn -0.4417 -0.8476 -0.2941
vn -0.8099 -0.4751 -0.3441
vn -0.5008 0.6653 -0.5536
vn -0.7539 -0.5473 -0.3635
vn 0.9002 -0.1814 -0.3960
vn 0.9211 0.0594 -0.3848
vn 0.9337 -0.1593 -0.3207
vn 0.8720 0.3705 -0.3200
vn 0.5872 -0.1177 -0.8008
vn 0.9142 -0.0703 -0.3992
vn 0.9667 -0.1150 -0.2286
vn 0.4759 0.7566 -0.4484
vn 0.2974 0.9073 -0.2972
vn 0.3147 0.8133 -0.4894
vn 0.6173 0.1296 -0.7760
vn 0.5076 0.5088 -0.6953
vn -0.5702 0.4709 -0.6731
vn -0.7041 0.1110 -0.7014
vn -0.8080 -0.3675 -0.4606
vn -0.8474 -0.1527 -0.5085
vn 0.6909 0.4974 -0.5246
vn 0.4046 -0.7634 -0.5035
vn 0.6152 0.0097 -0.7883
vn 0.6346 -0.0718 -0.7695
vn 0.6089 0.5206 -0.5985
vn 0.5952 -0.4858 -0.6401
vn 0.1475 0.4815 -0.8640
vn -0.1589 0.6111 -0.7754
vn -0.8374 -0.1510 -0.5254
vn -0.7997 -0.0430 -0.5989
vn -0.4432 0.6989 -0.5614
vn -0.7207 -0.5612 -0.4070
vn -0.7262 -0.3277 -0.6044
vn -0.7469 0.2366 -0.6215
vn -0.7431 0.0295 -0.6685
vn 0.7748 0.2245 -0.5910
vn 0.8620 -0.1461 -0.4854
vn 0.5359 -0.0861 -0.8399
vn 0.6478 -0.1894 -0.7379
vn 0.8342 -0.1592 -0.5280
vn 0.5421 -0.0798 -0.8365
vn 0.6631 0.0247 -0.7481
vn 0.2329 0.6577 -0.7164
vn 0.0690 0.7852 -0.6154
vn 0.3720 0.0003 -0.9282
vn 0.2845 0.0696 -0.9561
vn 0.3888 0.2341 -0.8911
vn -0.3725 -0.8549 -0.3612
vn -0.4495 0.3913 -0.8030
vn -0.5045 -0.7514 -0.4254
vn -0.3524 -0.0560 -0.9342
vn -0.5631 0.0532 -0.8247
vn -0.7095 -0.4674 -0.5274
vn -0.6081 0.4426 -0.6590
vn 0.4908 -0.2188 -0.8433
vn 0.5333 0.5419 -0.6496
vn 0.4089 0.7140 -0.5684
vn 0.1964 0.8020 -0.5641
vn -0.0812 0.7668 -0.6368
vn 0.0119 -0.0569 -0.9983
vn -0.1702 -0.0841 -0.9818
vn -0.2657 0.2437 -0.9327
vn -0.2287 -0.1014 -0.9682
vn -0.7658 -0.3149 -0.5606
vn -0.1934 0.7626 -0.6173
vn -0.3520 -0.3905 -0.8507
vn -0.7148 -0.4454 -0.5392
vn 0.5897 0.5345 -0.6055
vn 0.8213 -0.0341 -0.5694
vn 0.5293 0.5506 -0.6455
vn 0.5320 -0.3174 -0.7850
vn 0.6553 0.1283 -0.7444
vn 0.4710 -0.0861 -0.8779
vn 0.5540 0.0730 -0.8293
vn 0.1161 -0.9626 -0.2446
vn 0.0681 0.0287 -0.9973
vn -0.4618 -0.7305 -0.5030
vn -0.6716 -0.0755 -0.7371
vn -0.6346 -0.2732 -0.7230
vn -0.7469 -0.3965 -0.5338
vn -0.4082 0.5470 -0.7308
vn -0.6411 0.1223 -0.7577
vn 0.7354 -0.1427 -0.6625
vn 0.7479 -0.1169 -0.6534
vn 0.4882 -0.5207 -0.7004
vn 0.5515 -0.5642 -0.6144
vn 0.5005 0.4321 -0.7502
vn 0.6797 -0.0945 -0.7274
vn -0.0166 0.7657 -0.6430
vn -0.5419 -0.1739 -0.8223
vn -0.4839 0.3294 -0.8108
vn -0.6773 -0.2831 -0.6791
vn -0.5849 0.2313 -0.7774
vn -0.6612 -0.1327 -0.7384
vn 0.6183 -0.1593 -0.7696
vn 0.4450 0.6090 -0.6566
vn 0.4222 -0.2729 -0.8644
vn 0.6197 -0.0048 -0.7848
vn 0.3488 0.5212 -0.7789
vn 0.0979 0.6215 -0.7773
vn -0.4417 -0.5702 -0.6927
vn -0.5012 -0.0841 -0.8612
vn -0.5444 0.1613 -0.8232
vn -0.6205 0.0065 -0.7842
vn 0.5938 0.1567 -0.7892
vn 0.4615 0.4904 -0.7393
vn 0.4096 -0.3655 -0.8358
vn 0.3971 0.4448 -0.8028
vn 0.4115 0.1279 -0.9024
vn 0.1161 -0.9626 -0.2447
vn 0.4180 -0.8234 -0.3838
vn 0.3752 0.1121 -0.9201
vn 0.2844 -0.1194 -0.9512
vn -0.3156 -0.0513 -0.9475
vn -0.3284 -0.2738 -0.9040
vn -0.5148 -0.3368 -0.7884
vn -0.1530 0.6033 -0.7827
vn -0.5500 -0.4221 -0.7207
vn -0.6144 -0.0756 -0.7854
vn 0.5596 -0.0694 -0.8258
vn 0.3596 0.4705 -0.8058
vn 0.3539 -0.3111 -0.8820
vn -0.3948 -0.1820 -0.9006
vn -0.3234 0.4220 -0.8470
vn -0.6034 -0.3732 -0.7047
vn 0.4083 0.1488 -0.9006
vn 0.4274 -0.0286 -0.9036
vn 0.4318 -0.1136 -0.8948
vn 0.3205 0.3008 -0.8982
vn -0.0449 0.1205 -0.9917
vn -0.0819 -0.3629 -0.9282
vn -0.0771 -0.1929 -0.9782
vn 0.1785 0.4904 -0.8530
vn -0.2839 0.1735 -0.9430
vn -0.2318 -0.3792 -0.8958
vn -0.0555 0.4226 -0.9046
vn -0.5730 0.0157 -0.8194
vn 0.2897 -0.4178 -0.8611
vn 0.1452 -0.5025 -0.8523
vn 0.2897 0.3496 -0.8910
vn 0.1224 -0.3283 -0.9366
vn 0.1307 0.2926 -0.9473
vn -0.3681 0.2651 -0.8912
vn 0.3329 0.0196 -0.9428
vn 0.2928 0.1474 -0.9448
vn 0.3757 -0.2242 -0.8992
vn -0.0563 -0.4144 -0.9083
vn -0.3528 -0.4399 -0.8259
vn -0.5602 -0.2009 -0.8036
vn 0.3572 0.0598 -0.9321
vn 0.3648 0.0398 -0.9302
vn 0.0719 -0.4409 -0.8947
vn -0.2473 -0.3969 -0.8839
vn -0.4671 0.1208 -0.8759
vn -0.3786 0.0507 -0.9242
vn -0.4456 -0.0496 -0.8939
vn 0.2391 0.1224 -0.9633
vn 0.1492 -0.2851 -0.9468
vn 0.0704 0.1964 -0.9780
vn -0.1553 0.1983 -0.9678
vn 0.2294 0.0089 -0.9733
vn 0.0647 0.1222 -0.9904
vn -0.1972 -0.2689 -0.9428
vn -0.0886 -0.0099 -0.9960
usemtl Material__1
s 1
f 1/1/1 2/2/2 3/3/3
f 3/4/3 2/5/2 4/6/4
f 4/7/5 2/2/6 5/8/7
f 3/3/8 4/7/5 6/9/9
f 5/8/7 6/9/9 4/7/5
f 6/9/9 7/10/10 3/3/8
f 8/11/11 3/12/3 9/13/12
f 9/13/13 3/12/8 7/14/10
f 1/15/14 10/16/15 2/17/16
f 10/16/15 5/18/17 2/17/16
f 11/19/18 6/9/9 5/8/7
f 9/13/13 7/14/10 12/20/19
f 13/21/20 14/22/21 15/23/22
f 15/23/22 16/24/23 13/21/20
f 15/23/22 17/25/24 16/24/23
f 18/26/25 17/25/24 15/23/22
f 16/24/23 17/25/24 19/27/26
f 10/16/15 11/28/18 5/18/17
f 20/29/27 6/9/9 11/19/18
f 8/30/11 1/31/1 3/4/3
f 6/9/9 21/32/28 7/10/10
f 20/29/27 21/32/28 6/9/9
f 21/33/28 12/20/19 7/14/10
f 22/34/29 15/23/22 14/22/21
f 22/34/29 23/35/30 15/23/22
f 24/36/31 13/21/20 16/24/23
f 24/36/31 16/24/23 25/37/32
f 23/35/30 18/26/25 15/23/22
f 19/27/26 25/37/32 16/24/23
f 17/25/24 26/38/33 19/27/26
f 26/38/33 17/25/24 18/26/25
f 27/39/34 10/16/15 1/15/14
f 12/20/19 28/40/35 9/13/13
f 29/41/36 14/42/21 13/43/20
f 24/44/31 29/41/36 13/43/20
f 30/45/37 24/36/31 25/37/32
f 23/35/30 31/46/38 18/26/25
f 32/47/39 26/38/33 18/26/25
f 33/48/40 34/49/41 35/50/42
f 36/51/43 27/52/44 1/53/1
f 37/54/45 1/31/1 8/30/11
f 38/55/46 20/29/27 11/19/18
f 28/40/47 12/20/48 39/56/49
f 21/33/28 39/56/50 12/20/19
f 21/32/51 40/57/52 39/58/49
f 41/59/53 40/57/54 21/32/28
f 39/58/49 40/57/52 42/60/55
f 43/61/56 44/62/57 45/63/58
f 42/60/55 40/57/52 46/64/59
f 46/64/59 40/57/52 47/65/60
f 48/66/61 49/67/62 14/42/21
f 48/66/61 14/42/21 29/41/36
f 14/42/21 50/68/63 22/69/29
f 45/63/58 51/70/64 52/71/65
f 44/62/57 51/70/64 45/63/58
f 53/72/66 51/70/64 44/62/57
f 54/73/67 53/72/66 44/62/57
f 22/34/29 55/74/68 23/35/30
f 52/71/65 51/70/64 56/75/69
f 53/72/66 57/76/70 51/70/64
f 30/45/37 25/37/32 58/77/71
f 51/70/64 59/78/72 56/75/69
f 57/76/70 59/78/72 51/70/64
f 60/79/73 31/46/38 23/35/30
f 25/37/32 19/27/26 58/77/71
f 61/80/74 62/81/75 33/48/40
f 59/78/72 57/76/70 63/82/76
f 32/47/39 18/26/25 31/46/38
f 62/81/75 34/49/41 33/48/40
f 64/83/77 34/49/41 65/84/78
f 65/84/78 34/49/41 62/81/75
f 66/85/79 33/86/80 35/87/81
f 66/85/79 67/88/82 33/86/80
f 68/89/83 35/90/84 64/91/77
f 64/83/77 35/50/84 34/49/41
f 66/92/85 35/90/85 68/89/85
f 36/93/86 10/94/86 27/95/86
f 69/96/87 11/28/18 10/16/15
f 37/54/45 36/97/43 1/31/1
f 8/11/11 9/13/12 28/40/47
f 70/98/88 71/99/89 43/61/56
f 39/58/49 72/100/90 28/101/47
f 21/32/28 20/29/27 73/102/91
f 74/103/92 75/104/93 45/63/58
f 70/98/88 45/63/58 75/104/93
f 70/98/88 43/61/56 45/63/58
f 44/62/57 43/61/56 71/99/89
f 54/73/67 44/62/57 71/99/89
f 71/99/89 76/105/94 54/73/67
f 77/106/95 45/63/58 52/71/65
f 41/59/53 47/65/96 40/57/54
f 78/107/97 48/66/61 29/41/36
f 49/67/62 79/108/98 14/42/21
f 79/108/98 80/109/99 14/42/21
f 80/109/99 50/68/63 14/42/21
f 52/71/65 81/110/100 77/106/95
f 76/105/94 82/111/101 54/73/67
f 83/112/102 47/65/96 41/59/53
f 30/45/37 78/113/97 24/36/31
f 78/107/97 29/41/36 24/44/31
f 52/71/65 84/114/103 81/110/100
f 85/115/104 47/65/60 83/112/105
f 84/114/103 52/71/65 56/75/69
f 82/111/101 53/72/66 54/73/67
f 86/116/106 53/72/66 82/111/101
f 85/115/104 83/112/105 87/117/107
f 88/118/108 60/79/73 23/35/30
f 88/118/108 23/35/30 55/74/68
f 85/115/104 87/117/107 89/119/109
f 90/120/110 30/45/37 58/77/71
f 89/121/109 87/122/107 61/123/111
f 83/112/105 62/81/75 87/117/107
f 84/114/103 56/75/69 91/124/112
f 53/72/66 92/125/113 57/76/70
f 89/119/109 33/48/80 67/126/82
f 33/48/40 89/119/114 61/80/74
f 62/81/75 61/80/74 87/117/107
f 59/78/72 91/124/112 56/75/69
f 93/127/115 58/77/71 19/27/26
f 57/76/70 92/125/113 63/82/76
f 93/128/115 19/129/26 26/130/33
f 26/130/33 94/131/116 93/128/115
f 32/47/39 31/46/38 95/132/117
f 96/133/118 64/83/77 65/84/78
f 37/54/45 97/134/119 36/97/43
f 11/28/18 69/96/87 38/135/46
f 75/104/93 98/136/120 70/98/88
f 98/137/120 99/138/121 70/139/88
f 72/100/90 8/140/11 28/101/47
f 70/98/88 99/141/121 71/99/89
f 99/141/121 100/142/122 71/99/89
f 101/143/123 74/103/92 45/63/58
f 72/100/90 39/58/49 42/60/55
f 73/102/91 41/59/53 21/32/28
f 101/143/123 45/63/58 77/106/95
f 71/99/89 100/142/122 76/105/94
f 102/144/124 76/105/94 100/142/125
f 102/144/124 82/111/101 76/105/94
f 103/145/126 83/112/102 41/59/53
f 104/146/127 46/64/59 47/65/128
f 85/115/104 104/146/127 47/65/128
f 86/147/106 105/148/129 53/149/66
f 106/150/130 89/119/109 67/126/82
f 83/112/102 65/84/78 62/81/75
f 107/151/131 65/84/78 83/112/102
f 91/124/112 108/152/132 84/114/103
f 105/148/129 92/153/113 53/149/66
f 105/148/129 109/154/133 92/153/113
f 90/120/110 58/77/71 93/127/115
f 60/79/73 110/155/134 31/46/38
f 59/156/72 111/157/135 91/158/112
f 112/159/136 63/82/76 92/125/113
f 109/154/133 112/160/136 92/153/113
f 63/161/76 113/162/137 59/156/72
f 110/155/134 95/132/117 31/46/38
f 113/162/137 111/157/135 59/156/72
f 94/131/116 26/130/33 114/163/138
f 114/163/138 26/130/33 115/164/139
f 26/130/33 32/165/39 115/164/139
f 113/162/137 63/161/76 112/166/136
f 32/165/39 116/167/140 115/164/139
f 116/167/140 32/165/39 95/168/117
f 96/169/118 117/170/141 64/91/77
f 117/170/141 68/89/83 64/91/77
f 36/171/43 118/172/142 10/16/15
f 118/172/142 69/96/87 10/16/15
f 119/173/143 38/135/46 69/96/87
f 120/174/144 99/138/121 98/137/120
f 38/55/46 121/175/145 20/29/27
f 122/176/146 123/177/147 99/138/121
f 121/175/145 73/102/91 20/29/27
f 100/178/122 99/138/121 123/177/147
f 124/179/148 100/178/122 123/177/147
f 75/104/93 74/103/92 98/136/120
f 125/180/149 102/144/124 100/142/125
f 126/181/150 101/143/123 77/106/95
f 127/182/151 42/60/55 46/64/59
f 73/102/91 103/145/126 41/59/53
f 77/106/95 128/183/152 126/181/150
f 77/106/95 81/110/100 128/183/152
f 102/144/124 86/116/106 82/111/101
f 128/183/152 81/110/100 129/184/153
f 30/45/37 130/185/154 78/113/97
f 50/68/63 55/186/68 22/69/29
f 50/68/63 131/187/155 55/186/68
f 104/146/127 85/115/104 106/150/130
f 84/114/103 129/184/153 81/110/100
f 132/188/156 133/189/157 86/147/106
f 130/185/154 133/189/157 132/188/156
f 30/45/37 133/189/157 130/185/154
f 131/187/155 88/190/108 55/186/68
f 133/189/157 105/148/129 86/147/106
f 90/120/110 133/189/157 30/45/37
f 106/150/130 85/115/104 89/119/109
f 103/145/126 107/151/131 83/112/102
f 88/118/108 134/191/158 60/79/73
f 135/192/159 134/191/158 88/118/108
f 133/189/157 136/193/160 105/148/129
f 90/120/110 136/193/160 133/189/157
f 136/193/160 109/154/133 105/148/129
f 136/193/160 90/120/110 93/127/115
f 134/191/158 110/155/134 60/79/73
f 96/133/118 65/84/78 107/151/131
f 136/193/160 93/127/115 137/194/161
f 94/131/116 137/195/161 93/128/115
f 110/196/134 138/197/162 95/168/117
f 112/166/136 139/198/163 113/162/137
f 137/195/161 94/131/116 114/163/138
f 116/167/140 95/168/117 138/197/162
f 140/199/164 68/89/83 117/170/141
f 97/200/165 118/201/142 36/51/43
f 119/202/143 121/175/145 38/55/46
f 122/176/146 99/138/121 120/174/144
f 125/203/149 100/178/125 124/179/166
f 141/204/167 142/205/168 74/103/92
f 101/143/123 141/204/167 74/103/92
f 8/140/11 72/100/90 127/182/151
f 143/206/169 73/102/91 121/175/145
f 141/204/167 101/143/123 126/181/150
f 127/182/151 72/100/90 42/60/55
f 143/206/169 103/145/126 73/102/91
f 144/207/170 129/184/153 145/208/171
f 128/183/152 129/184/153 144/207/170
f 126/181/150 128/183/152 144/207/170
f 48/66/61 146/209/172 49/67/62
f 130/185/154 146/210/172 48/211/61
f 49/67/62 147/212/173 79/108/98
f 146/209/172 147/212/173 49/67/62
f 127/213/151 46/214/59 104/215/127
f 148/216/174 103/145/126 143/206/169
f 132/188/156 86/147/106 102/217/124
f 48/211/61 78/113/97 130/185/154
f 80/109/99 149/218/175 50/68/63
f 149/218/175 150/219/176 50/68/63
f 151/220/177 103/145/126 148/216/174
f 50/68/63 150/219/176 131/187/155
f 135/221/159 88/190/108 131/187/155
f 151/220/177 107/151/131 103/145/126
f 129/184/153 108/152/132 152/222/178
f 84/114/103 108/152/132 129/184/153
f 153/223/179 134/191/158 135/192/159
f 108/152/132 154/224/180 155/225/181
f 108/152/132 91/124/112 154/224/180
f 156/226/182 110/155/134 134/191/158
f 137/194/161 157/227/183 136/193/160
f 154/224/180 91/124/112 158/228/184
f 136/193/160 157/227/183 109/154/133
f 115/164/139 159/229/185 114/163/138
f 158/230/184 91/158/112 160/231/186
f 91/158/112 111/157/135 160/231/186
f 109/154/133 157/227/183 112/160/136
f 114/163/138 161/232/187 137/195/161
f 159/229/185 115/164/139 116/167/140
f 116/167/140 138/197/162 162/233/188
f 163/234/189 117/170/141 96/169/118
f 113/162/137 160/231/186 111/157/135
f 112/166/136 164/235/190 139/198/163
f 157/227/183 164/236/190 112/160/136
f 157/227/183 137/194/161 161/237/187
f 165/238/191 68/239/192 140/240/164
f 166/241/193 69/242/87 118/201/142
f 167/243/194 121/175/145 119/202/143
f 167/243/194 168/244/195 121/175/145
f 169/245/196 98/137/120 74/246/92
f 123/177/147 170/247/197 124/179/148
f 171/248/198 172/249/199 168/244/195
f 172/249/199 173/250/200 168/244/195
f 173/250/200 121/175/145 168/244/195
f 172/249/199 144/207/170 174/251/201
f 173/250/200 143/206/169 121/175/145
f 172/249/199 175/252/202 173/250/200
f 174/251/201 175/252/202 172/249/199
f 144/207/170 145/208/171 174/251/201
f 144/207/170 176/253/203 126/181/150
f 176/253/203 177/254/204 126/181/150
f 178/255/205 102/144/124 125/180/149
f 178/256/205 179/257/206 102/217/124
f 179/257/206 132/188/156 102/217/124
f 179/257/206 146/210/172 130/185/154
f 179/257/206 130/185/154 132/188/156
f 180/258/207 80/109/99 79/108/98
f 129/184/153 152/222/178 145/208/171
f 106/150/130 127/182/151 104/146/127
f 181/259/208 135/221/159 131/187/155
f 151/220/177 182/260/209 107/151/131
f 182/260/209 183/261/210 107/151/131
f 155/225/181 152/222/178 108/152/132
f 156/226/182 134/191/158 153/223/179
f 184/262/211 110/196/134 156/263/182
f 185/264/212 184/262/211 156/263/182
f 184/262/211 138/197/162 110/196/134
f 159/229/185 186/265/213 114/163/138
f 187/266/214 67/88/82 66/85/79
f 186/265/213 161/232/187 114/163/138
f 138/197/162 184/262/211 188/267/215
f 138/197/162 188/267/215 162/233/188
f 186/265/213 189/268/216 161/232/187
f 190/269/217 116/167/140 162/233/188
f 140/199/164 117/170/141 163/234/189
f 191/270/218 160/231/186 113/162/137
f 157/227/183 192/271/219 164/236/190
f 161/237/187 192/271/219 157/227/183
f 191/270/218 113/162/137 139/198/163
f 166/241/193 193/272/220 69/242/87
f 194/273/221 119/173/143 69/96/87
f 193/274/220 194/273/221 69/96/87
f 169/245/196 120/174/144 98/137/120
f 120/174/144 195/275/222 122/176/146
f 167/276/194 196/277/223 168/278/195
f 168/278/195 196/277/223 171/279/198
f 197/280/224 171/279/198 196/277/223
f 169/245/196 74/246/92 142/281/168
f 198/282/225 171/279/198 197/280/224
f 170/247/197 125/203/149 124/179/166
f 171/248/198 198/283/225 172/249/199
f 172/249/199 198/283/225 144/207/170
f 176/253/203 144/207/170 198/283/225
f 199/284/226 178/285/205 125/286/149
f 177/287/204 200/288/227 126/289/150
f 126/181/150 200/290/227 141/204/167
f 179/257/206 178/256/205 201/291/228
f 202/292/229 179/257/206 201/291/228
f 174/251/201 203/293/230 175/252/202
f 180/258/207 79/108/98 147/212/173
f 173/250/200 148/216/174 143/206/169
f 180/294/207 204/295/231 80/296/99
f 204/295/231 149/297/175 80/296/99
f 67/298/232 127/299/232 106/300/233
f 205/301/234 148/216/174 173/250/200
f 175/252/202 205/301/234 173/250/200
f 203/293/230 206/302/235 175/252/202
f 145/208/171 203/293/230 174/251/201
f 175/252/202 206/302/235 205/301/234
f 152/222/178 203/293/230 145/208/171
f 181/259/208 131/187/155 150/219/176
f 205/301/234 151/220/177 148/216/174
f 205/301/234 182/260/209 151/220/177
f 203/293/230 155/225/181 207/303/236
f 152/222/178 155/225/181 203/293/230
f 208/304/237 185/305/212 156/226/182
f 183/261/210 96/133/118 107/151/131
f 209/306/238 159/229/185 116/167/140
f 209/306/238 116/167/140 190/269/217
f 163/234/189 210/307/239 140/199/164
f 189/268/216 186/265/213 211/308/240
f 187/309/214 66/310/79 68/239/241
f 160/231/186 212/311/242 158/230/184
f 187/309/214 68/239/241 165/238/243
f 212/311/242 160/231/186 213/312/244
f 213/312/244 160/231/186 214/313/245
f 191/270/218 214/313/245 160/231/186
f 161/232/187 215/314/246 192/315/219
f 189/268/216 215/314/246 161/232/187
f 97/200/165 216/316/247 118/201/142
f 216/316/247 166/241/193 118/201/142
f 167/276/194 119/173/143 194/273/221
f 217/317/248 120/174/144 169/245/196
f 122/176/146 170/247/197 123/177/147
f 218/318/249 198/282/225 197/280/224
f 219/319/250 176/320/203 198/282/225
f 219/319/250 200/288/227 176/320/203
f 142/205/168 141/204/167 200/290/227
f 200/288/227 177/287/204 176/320/203
f 199/284/226 125/286/149 170/321/197
f 178/285/205 199/284/251 201/322/228
f 220/323/252 179/257/206 202/292/229
f 220/323/252 146/210/172 179/257/206
f 220/324/252 147/212/173 146/209/172
f 221/325/253 180/258/207 147/212/173
f 8/326/254 127/299/232 67/298/232
f 222/327/255 150/219/176 149/218/175
f 222/327/255 181/259/208 150/219/176
f 181/259/208 223/328/256 135/221/159
f 135/221/159 223/328/256 153/329/179
f 203/293/230 207/303/236 206/302/235
f 205/301/234 224/330/257 182/260/209
f 208/304/237 156/226/182 153/223/179
f 206/302/235 224/330/257 205/301/234
f 224/330/257 225/331/258 182/260/209
f 207/303/236 226/332/259 206/302/235
f 227/333/260 185/305/212 208/304/237
f 225/331/258 183/261/210 182/260/209
f 224/330/257 206/302/235 228/334/261
f 96/169/118 183/335/210 163/234/189
f 229/336/262 207/303/236 155/225/181
f 154/224/180 229/336/262 155/225/181
f 188/267/215 184/262/211 185/264/212
f 185/264/212 230/337/263 188/267/215
f 158/228/184 229/336/262 154/224/180
f 231/338/264 159/229/185 209/306/238
f 188/267/215 232/339/265 162/233/188
f 158/230/184 233/340/266 229/341/262
f 234/342/267 211/308/240 186/265/213
f 232/339/265 190/269/217 162/233/188
f 212/311/242 233/340/266 158/230/184
f 191/270/218 235/343/268 214/313/245
f 164/235/190 191/270/218 139/198/163
f 211/308/240 215/314/246 189/268/216
f 191/270/218 164/235/190 236/344/269
f 192/315/219 236/345/269 164/346/190
f 236/345/269 192/315/219 215/314/246
f 217/317/248 237/347/270 120/174/144
f 237/347/270 195/275/222 120/174/144
f 195/275/222 238/348/271 122/176/146
f 239/349/272 196/277/223 167/276/194
f 240/350/273 170/247/197 122/176/146
f 196/277/223 241/351/274 197/280/224
f 197/280/224 241/351/274 218/318/249
f 242/352/275 142/281/168 200/288/227
f 142/281/168 217/317/248 169/245/196
f 218/318/249 219/319/250 198/282/225
f 199/284/251 243/353/276 201/322/228
f 243/353/276 202/354/229 201/322/228
f 220/324/252 202/354/229 243/353/276
f 244/355/277 149/297/175 204/295/231
f 245/356/278 153/329/179 223/328/256
f 245/356/278 208/357/237 153/329/179
f 224/358/257 246/359/279 225/360/258
f 246/359/279 247/361/280 225/360/258
f 224/358/257 228/362/261 246/359/279
f 226/332/259 228/334/261 206/302/235
f 248/363/281 183/335/210 225/360/258
f 246/359/279 228/362/261 249/364/282
f 207/303/236 229/336/262 226/332/259
f 248/363/281 163/234/189 183/335/210
f 185/365/212 227/366/260 230/367/263
f 163/234/189 248/363/281 210/307/239
f 234/368/267 186/369/213 250/370/283
f 250/370/283 186/369/213 159/371/185
f 250/370/283 159/371/185 231/372/264
f 251/373/284 140/240/164 210/374/239
f 165/238/191 140/240/164 251/373/284
f 252/375/285 215/314/246 211/308/240
f 212/311/242 213/312/244 253/376/286
f 236/344/269 235/343/268 191/270/218
f 215/314/246 254/377/287 236/345/269
f 255/378/288 236/345/269 254/377/287
f 216/316/247 256/379/289 166/241/193
f 216/380/290 97/134/119 37/54/45
f 239/349/272 167/276/194 194/273/221
f 257/381/291 241/351/274 196/277/223
f 242/352/275 217/317/248 142/281/168
f 238/348/271 240/350/273 122/176/146
f 258/382/292 219/319/250 218/318/249
f 219/319/250 259/383/293 200/288/227
f 259/383/293 242/352/275 200/288/227
f 260/384/294 199/284/226 170/321/197
f 8/30/11 261/385/295 37/54/45
f 260/384/294 243/353/276 199/284/251
f 262/386/296 220/324/252 243/353/276
f 244/355/277 263/387/297 149/297/175
f 263/387/297 222/388/255 149/297/175
f 227/389/260 208/390/237 245/391/278
f 247/361/280 248/363/281 225/360/258
f 247/361/280 246/359/279 264/392/298
f 249/364/282 228/362/261 226/393/259
f 229/341/262 249/364/282 226/393/259
f 232/339/265 188/267/215 230/337/263
f 265/394/299 187/395/214 165/396/243
f 265/397/300 165/238/191 251/373/284
f 266/398/301 229/341/262 233/340/266
f 252/375/285 211/308/240 234/342/267
f 212/311/242 267/399/302 233/340/266
f 253/376/286 267/399/302 212/311/242
f 253/376/286 213/312/244 268/400/303
f 268/400/303 213/312/244 214/313/245
f 214/313/245 235/343/268 268/400/303
f 254/377/287 215/314/246 252/375/285
f 235/401/268 236/345/269 255/378/288
f 256/379/289 193/272/220 166/241/193
f 237/347/270 269/402/304 195/275/222
f 193/274/220 239/349/272 194/273/221
f 242/352/275 237/347/270 217/317/248
f 257/381/291 196/277/223 239/349/272
f 240/403/273 260/384/294 170/321/197
f 241/351/274 258/382/292 218/318/249
f 258/382/292 259/383/293 219/319/250
f 260/384/294 270/404/305 243/353/276
f 220/324/252 221/325/253 147/212/173
f 271/405/306 180/258/207 221/325/253
f 271/405/306 204/406/231 180/258/207
f 222/388/255 272/407/307 181/408/208
f 273/409/308 223/410/256 181/408/208
f 248/363/281 247/361/280 264/392/298
f 264/392/298 246/359/279 274/411/309
f 249/364/282 274/411/309 246/359/279
f 230/367/263 275/412/310 232/413/265
f 229/341/262 266/398/301 249/364/282
f 249/364/282 266/398/301 276/414/311
f 250/415/283 277/416/312 234/342/267
f 277/416/312 252/375/285 234/342/267
f 267/399/302 253/376/286 278/417/313
f 252/375/285 279/418/314 254/377/287
f 255/378/288 280/419/315 235/401/268
f 255/378/288 254/377/287 281/420/316
f 268/400/303 235/343/268 280/421/315
f 256/379/289 282/422/317 193/272/220
f 283/423/318 269/402/304 237/347/270
f 282/422/317 239/424/272 193/272/220
f 283/423/318 237/347/270 242/352/275
f 284/425/319 242/352/275 259/383/293
f 270/404/305 262/386/296 243/353/276
f 262/386/296 285/426/320 220/324/252
f 285/426/320 221/325/253 220/324/252
f 263/387/297 272/407/307 222/388/255
f 272/407/307 273/409/308 181/408/208
f 286/427/321 245/428/278 223/410/256
f 187/266/214 8/30/11 67/88/82
f 287/429/322 274/411/309 249/364/282
f 275/412/310 230/367/263 227/366/260
f 288/430/323 210/374/239 248/431/281
f 289/432/324 251/373/284 210/374/239
f 289/432/324 210/374/239 288/430/323
f 287/429/322 249/364/282 276/414/311
f 209/433/238 190/434/217 290/435/325
f 190/434/217 232/413/265 291/436/326
f 292/437/327 276/414/311 266/398/301
f 266/398/301 233/340/266 267/399/302
f 293/438/328 252/375/285 277/416/312
f 252/375/285 293/438/328 294/439/329
f 295/440/330 267/399/302 278/417/313
f 268/400/303 278/417/313 253/376/286
f 279/418/314 252/375/285 294/439/329
f 281/420/316 254/377/287 279/418/314
f 280/419/315 255/378/288 281/420/316
f 282/422/317 296/441/331 239/424/272
f 284/425/319 283/423/318 242/352/275
f 297/442/332 257/381/291 239/349/272
f 298/443/333 284/425/319 259/383/293
f 297/442/332 258/382/292 241/351/274
f 258/382/292 298/443/333 259/383/293
f 240/403/273 270/404/305 260/384/294
f 299/444/334 261/385/295 8/30/11
f 271/445/306 244/355/277 204/295/231
f 263/387/297 244/355/277 300/446/335
f 223/410/256 273/409/308 286/427/321
f 301/447/336 227/448/260 245/449/278
f 302/450/337 227/448/260 301/447/336
f 299/444/334 8/30/11 187/266/214
f 227/366/260 302/451/337 275/412/310
f 303/452/338 287/429/322 276/414/311
f 250/370/283 231/372/339 304/453/340
f 304/454/341 231/338/264 209/306/238
f 305/455/342 187/309/214 265/397/299
f 305/455/343 265/397/300 251/373/284
f 305/455/343 251/373/284 289/432/324
f 290/435/325 190/434/217 291/436/326
f 295/440/330 278/417/313 306/456/344
f 306/456/344 278/417/313 268/400/303
f 256/379/289 216/316/247 307/457/345
f 256/379/289 296/441/331 282/422/317
f 37/458/346 307/457/345 216/316/247
f 296/441/331 297/459/332 239/424/272
f 297/442/332 241/351/274 257/381/291
f 240/403/273 308/460/347 270/404/305
f 308/460/347 285/426/320 270/404/305
f 285/426/320 262/386/296 270/404/305
f 309/461/348 221/325/253 285/426/320
f 271/405/306 221/325/253 309/461/348
f 271/445/306 310/462/349 244/355/277
f 310/462/349 300/446/335 244/355/277
f 301/447/336 245/449/278 286/463/321
f 311/464/350 248/431/281 264/465/298
f 264/392/298 274/411/309 312/466/351
f 248/431/281 311/464/350 288/430/323
f 274/411/309 287/429/322 313/467/352
f 313/467/352 287/429/322 303/452/338
f 314/468/353 289/432/324 288/430/323
f 304/453/340 209/433/238 315/469/354
f 315/469/354 209/433/238 290/435/325
f 316/470/355 232/413/265 275/412/310
f 232/413/265 316/470/355 291/436/326
f 303/452/338 276/414/311 292/437/327
f 293/438/328 277/416/312 250/415/283
f 317/471/356 292/437/327 266/398/301
f 317/471/356 266/398/301 267/399/302
f 317/471/356 267/399/302 318/472/357
f 318/472/357 267/399/302 295/440/330
f 306/456/344 268/400/303 319/473/358
f 319/473/358 268/400/303 280/421/315
f 281/420/316 320/474/359 280/419/315
f 321/475/360 195/275/222 269/402/304
f 322/476/361 283/423/318 284/425/319
f 322/477/361 323/478/362 283/479/318
f 195/275/222 321/475/360 238/348/271
f 321/475/360 240/350/273 238/348/271
f 321/475/360 324/480/363 240/350/273
f 325/481/364 322/477/361 298/482/333
f 322/476/361 284/425/319 298/443/333
f 326/483/365 258/382/292 297/442/332
f 325/484/364 298/443/333 258/382/292
f 324/485/363 327/486/366 240/403/273
f 327/486/366 308/460/347 240/403/273
f 308/487/347 328/488/367 285/489/320
f 309/490/348 285/489/320 328/488/367
f 329/491/368 271/445/306 309/490/348
f 300/446/335 330/492/369 263/387/297
f 330/492/369 272/407/307 263/387/297
f 330/492/369 273/409/308 272/407/307
f 331/493/370 273/409/308 330/492/369
f 331/493/370 286/427/321 273/409/308
f 331/494/370 301/447/336 286/463/321
f 313/467/352 312/466/351 274/411/309
f 332/495/371 275/412/310 302/451/337
f 305/496/342 299/497/334 187/498/214
f 314/468/353 288/430/323 311/464/350
f 316/470/355 275/412/310 332/495/371
f 305/455/343 289/432/324 314/468/353
f 304/453/340 293/499/328 250/370/283
f 303/452/338 292/437/327 317/471/356
f 279/500/314 294/501/329 333/502/372
f 295/503/330 306/504/344 334/505/373
f 319/473/358 280/421/315 320/506/359
f 335/507/374 269/508/304 283/479/318
f 335/507/374 321/509/360 269/508/304
f 309/490/348 328/488/367 336/510/375
f 337/511/376 261/385/295 299/444/334
f 310/462/349 271/445/306 329/491/368
f 301/447/336 338/512/377 302/450/337
f 311/464/350 264/465/298 312/513/351
f 312/513/351 313/514/352 339/515/378
f 305/455/343 314/468/353 340/516/379
f 341/517/380 291/436/326 316/470/355
f 290/435/325 291/436/326 341/517/380
f 342/518/381 303/519/338 317/520/356
f 343/521/382 293/499/328 304/453/340
f 342/518/381 317/520/356 318/522/357
f 294/501/329 293/499/328 343/521/382
f 318/522/357 295/503/330 334/505/373
f 344/523/383 279/500/314 333/502/372
f 345/524/384 281/525/316 279/500/314
f 345/524/384 279/500/314 344/523/383
f 334/505/373 306/504/344 319/526/358
f 346/527/385 320/528/359 345/529/384
f 345/529/384 320/528/359 281/530/316
f 347/531/386 256/379/289 307/457/345
f 296/441/331 256/379/289 347/531/386
f 297/459/332 296/441/331 347/531/386
f 326/483/365 325/484/364 258/382/292
f 327/532/366 328/488/367 308/487/347
f 329/491/368 348/533/387 310/462/349
f 348/533/387 300/446/335 310/462/349
f 349/534/388 301/447/336 331/494/370
f 332/495/371 302/451/337 338/535/377
f 350/536/389 340/516/379 314/468/353
f 351/537/390 339/515/378 313/514/352
f 340/516/391 299/538/334 305/455/342
f 351/537/390 313/514/352 303/519/338
f 341/517/380 315/469/354 290/435/325
f 352/539/392 303/519/338 342/518/381
f 353/540/393 343/521/382 304/453/340
f 342/518/381 318/522/357 354/541/394
f 333/502/372 294/501/329 343/521/382
f 354/541/394 318/522/357 334/505/373
f 319/526/358 320/528/359 346/527/385
f 355/542/395 283/479/318 323/478/362
f 335/507/374 283/479/318 355/542/395
f 356/543/396 321/509/360 335/507/374
f 323/478/362 322/477/361 357/544/397
f 321/509/360 358/545/398 324/546/363
f 325/481/364 357/544/397 322/477/361
f 358/545/398 327/547/366 324/546/363
f 359/548/399 347/531/386 307/457/345
f 347/531/386 360/549/400 297/459/332
f 360/549/400 326/550/365 297/459/332
f 326/550/365 361/551/401 325/481/364
f 361/551/401 357/544/397 325/481/364
f 328/488/367 327/532/366 336/510/375
f 336/510/375 362/552/402 309/490/348
f 363/553/403 329/491/368 309/490/348
f 363/553/403 309/490/348 362/552/402
f 364/554/404 329/491/368 363/553/403
f 364/554/404 348/533/387 329/491/368
f 300/446/335 348/533/387 330/492/369
f 348/533/387 365/555/405 330/492/369
f 365/555/405 366/556/406 330/492/369
f 366/556/406 331/493/370 330/492/369
f 349/557/388 331/493/370 366/556/406
f 338/512/377 301/447/336 349/534/388
f 338/535/377 367/558/407 332/495/371
f 350/536/389 314/468/353 311/464/350
f 341/517/380 316/470/355 367/558/407
f 367/558/407 316/470/355 332/495/371
f 352/539/392 351/537/390 303/519/338
f 304/453/340 315/469/354 353/540/393
f 353/559/393 315/560/354 368/561/408
f 315/469/354 341/517/380 368/562/408
f 354/541/394 334/505/373 369/563/409
f 370/564/410 369/563/409 334/505/373
f 334/505/373 319/526/358 370/564/410
f 356/543/396 358/545/398 321/509/360
f 371/565/411 327/547/366 358/545/398
f 360/549/400 361/551/401 326/550/365
f 372/566/412 37/458/45 261/567/295
f 307/457/345 37/458/413 372/566/414
f 307/457/345 372/566/414 359/548/399
f 373/568/415 336/510/375 327/532/366
f 374/569/416 372/566/412 261/567/295
f 366/570/406 375/571/417 349/534/388
f 349/534/388 376/572/418 338/512/377
f 367/573/407 338/512/377 376/572/418
f 350/536/389 311/464/350 312/513/351
f 377/574/419 312/513/351 339/515/378
f 378/575/420 340/516/379 350/536/389
f 379/576/421 343/521/382 353/540/393
f 352/539/392 342/518/381 380/577/422
f 380/577/422 342/518/381 354/541/394
f 381/578/423 354/541/394 369/563/409
f 382/579/424 344/523/383 333/502/372
f 383/580/425 346/527/385 382/581/424
f 382/581/424 346/527/385 345/529/384
f 382/579/424 345/524/384 344/523/383
f 370/564/410 319/526/358 346/527/385
f 356/543/396 335/507/374 355/542/395
f 384/582/426 358/545/398 356/543/396
f 357/544/397 385/583/427 323/478/362
f 385/583/427 355/542/395 323/478/362
f 347/531/386 359/548/399 386/584/428
f 360/549/400 347/531/386 387/585/429
f 388/586/430 361/551/401 360/549/400
f 386/584/428 387/585/429 347/531/386
f 371/587/411 373/568/415 327/532/366
f 359/548/399 372/566/414 389/588/431
f 374/569/416 390/589/432 372/566/414
f 389/588/431 372/566/414 390/589/432
f 391/590/433 364/591/404 392/592/434
f 348/593/387 364/591/404 391/590/433
f 393/594/435 348/593/387 391/590/436
f 393/594/435 365/595/405 348/593/387
f 365/595/405 394/596/437 366/570/406
f 395/597/438 337/511/376 299/444/334
f 375/571/417 366/570/406 394/596/437
f 376/572/418 349/534/388 375/571/417
f 376/572/418 396/598/439 367/573/407
f 395/599/438 340/516/391 378/575/440
f 395/600/438 299/497/334 340/601/391
f 350/536/389 312/513/351 377/574/419
f 397/602/441 368/562/408 398/603/442
f 368/562/408 397/602/441 353/540/393
f 396/604/439 398/603/442 367/558/407
f 368/562/408 341/517/380 398/603/442
f 398/603/442 341/517/380 367/558/407
f 399/605/443 380/577/422 354/541/394
f 400/606/444 333/502/372 343/521/382
f 399/605/443 354/541/394 381/578/423
f 382/579/424 333/502/372 400/606/444
f 383/580/425 370/564/410 346/527/385
f 384/582/426 371/565/411 358/545/398
f 388/586/430 357/544/397 361/551/401
f 388/586/430 385/583/427 357/544/397
f 388/586/430 360/549/400 387/585/429
f 401/607/445 387/585/429 386/584/428
f 336/510/375 373/568/415 402/608/446
f 336/510/375 402/608/446 362/552/402
f 403/609/447 363/553/403 362/552/402
f 403/610/447 404/611/448 363/612/403
f 404/611/448 364/591/404 363/612/403
f 365/595/405 393/594/435 394/596/437
f 392/592/434 405/613/449 391/590/433
f 393/594/435 391/590/436 406/614/450
f 406/614/450 391/590/436 405/613/451
f 406/614/450 405/613/451 397/615/441
f 376/572/418 375/571/417 407/616/452
f 406/614/450 397/615/441 408/617/453
f 396/598/439 376/572/418 407/616/452
f 408/617/453 397/615/441 398/618/442
f 408/617/453 398/618/442 407/616/452
f 377/574/419 339/515/378 409/619/454
f 396/598/439 407/616/452 398/618/442
f 339/515/378 351/537/390 409/619/454
f 410/620/455 353/559/393 405/613/449
f 405/621/451 353/622/456 397/623/441
f 410/624/455 379/576/421 353/540/393
f 411/625/457 380/577/422 399/605/443
f 400/606/444 343/521/382 379/576/421
f 381/578/423 369/563/409 370/564/410
f 371/565/411 384/582/426 412/626/458
f 388/586/430 413/627/459 385/583/427
f 414/628/460 371/565/411 412/626/458
f 401/607/445 415/629/461 387/585/429
f 415/629/461 388/586/430 387/585/429
f 373/568/415 371/587/411 414/630/460
f 416/631/462 390/589/432 374/569/416
f 386/584/428 359/548/399 389/588/431
f 386/632/428 417/633/463 401/634/445
f 390/589/432 418/635/464 389/588/431
f 362/552/402 402/608/446 403/609/447
f 337/511/376 419/636/465 261/385/295
f 392/592/434 364/591/404 404/611/448
f 394/596/437 393/594/435 420/637/466
f 393/594/435 406/614/450 420/637/466
f 375/571/417 394/596/437 420/637/466
f 420/637/466 406/614/450 408/617/453
f 407/616/452 375/571/417 420/637/466
f 392/592/434 410/620/455 405/613/449
f 395/638/438 378/639/440 421/640/467
f 378/575/420 350/536/389 421/641/468
f 421/641/468 350/536/389 377/574/419
f 408/617/453 407/616/452 420/637/466
f 377/574/419 409/619/454 422/642/469
f 351/537/390 352/539/392 423/643/470
f 379/576/421 424/644/471 400/606/444
f 383/580/425 382/581/424 425/645/472
f 426/646/473 356/543/396 355/542/395
f 426/646/473 384/582/426 356/543/396
f 413/627/459 427/647/474 385/583/427
f 416/648/475 374/649/416 428/650/476
f 416/631/462 418/635/464 390/589/432
f 389/651/431 417/633/463 386/632/428
f 429/652/477 402/608/446 373/568/415
f 428/653/476 374/569/416 261/567/295
f 419/654/478 428/653/476 261/567/478
f 404/611/448 430/655/479 392/592/434
f 421/641/468 377/574/419 431/656/480
f 377/574/419 422/642/469 431/656/480
f 351/537/390 423/643/470 409/619/454
f 410/624/455 424/644/471 379/576/421
f 423/643/470 352/539/392 411/625/457
f 411/625/457 352/539/392 380/577/422
f 432/657/481 400/606/444 424/644/471
f 433/658/482 399/605/443 381/578/423
f 432/657/481 434/659/483 400/606/444
f 433/658/482 381/578/423 435/660/484
f 400/606/444 434/659/483 382/579/424
f 381/578/423 370/564/410 435/660/484
f 425/645/472 382/581/424 434/661/483
f 370/564/410 383/580/425 435/660/484
f 413/627/459 388/586/430 436/662/485
f 385/583/427 426/646/473 355/542/395
f 426/646/473 385/583/427 427/647/474
f 388/586/430 415/629/461 436/662/485
f 412/626/458 437/663/486 414/628/460
f 429/652/477 414/630/460 437/664/486
f 401/634/445 417/633/463 438/665/487
f 416/631/475 428/653/476 439/666/488
f 418/635/464 416/631/462 439/666/488
f 417/633/463 389/651/431 418/667/464
f 373/568/415 414/630/460 429/652/477
f 440/668/489 403/609/447 402/608/446
f 440/668/489 402/608/446 429/652/477
f 440/669/489 404/611/448 403/610/447
f 441/670/490 430/655/479 404/611/448
f 442/671/491 337/672/376 395/599/438
f 443/673/492 442/674/491 421/640/468
f 395/599/438 421/641/467 442/671/491
f 421/640/468 431/675/480 443/673/492
f 410/620/455 392/592/434 430/655/479
f 444/676/493 425/645/472 434/661/483
f 435/660/484 383/580/425 445/677/494
f 445/677/494 383/580/425 425/645/472
f 446/678/495 412/626/458 384/582/426
f 427/647/474 413/627/459 436/662/485
f 426/646/473 446/678/495 384/582/426
f 447/679/496 437/663/486 412/626/458
f 436/680/485 415/681/461 448/682/497
f 415/681/461 401/634/445 438/665/487
f 415/681/461 438/665/487 448/682/497
f 449/683/498 429/652/477 437/664/486
f 450/684/499 439/666/488 428/653/476
f 419/685/500 450/686/501 428/687/476
f 417/633/463 418/667/464 451/688/502
f 451/688/502 452/689/503 417/633/463
f 440/669/489 441/670/490 404/611/448
f 453/690/504 431/675/480 454/691/505
f 443/673/492 431/675/480 453/690/504
f 454/691/505 431/675/480 455/692/506
f 431/656/480 422/642/469 455/693/506
f 430/655/479 456/694/507 410/620/455
f 422/642/469 409/619/454 455/693/506
f 455/693/506 409/619/454 457/695/508
f 457/695/508 409/619/454 423/643/470
f 424/696/471 410/620/455 456/694/507
f 411/625/457 399/605/443 433/658/482
f 433/658/482 435/660/484 458/697/509
f 445/677/494 425/645/472 444/676/493
f 459/698/510 426/646/473 427/647/474
f 459/698/510 446/678/495 426/646/473
f 436/662/485 459/698/510 427/647/474
f 447/679/496 412/626/458 446/678/495
f 460/699/511 449/700/498 437/701/486
f 448/682/497 438/665/487 461/702/512
f 439/703/488 451/688/502 418/667/464
f 438/665/487 417/633/463 452/689/503
f 462/704/513 337/705/376 442/706/491
f 462/707/513 442/674/491 443/673/492
f 453/690/504 462/707/513 443/673/492
f 456/694/507 463/708/514 424/696/471
f 432/709/481 424/696/471 463/708/514
f 433/658/482 464/710/515 411/625/457
f 458/697/509 435/660/484 445/677/494
f 465/711/516 446/712/495 459/713/510
f 447/714/496 446/712/495 465/711/516
f 459/713/510 436/715/485 466/716/517
f 447/714/496 465/711/516 460/699/511
f 436/680/485 448/682/497 467/717/518
f 467/718/518 466/716/517 436/715/485
f 460/699/511 437/701/486 447/714/496
f 449/700/498 460/699/511 468/719/519
f 451/688/502 439/703/488 450/686/499
f 450/686/499 469/720/520 451/688/502
f 438/665/487 452/689/503 461/702/512
f 449/683/498 440/668/489 429/652/477
f 452/689/503 451/688/502 469/720/520
f 470/721/521 419/685/465 337/722/376
f 452/689/503 469/720/520 471/723/522
f 471/723/522 469/720/520 453/690/504
f 472/724/523 441/670/490 440/669/489
f 470/725/521 337/672/376 462/726/513
f 470/721/521 462/707/513 473/727/524
f 469/720/520 473/727/524 462/707/513
f 462/707/513 453/690/504 469/720/520
f 453/690/504 454/691/505 471/723/522
f 471/723/522 454/691/505 474/728/525
f 454/691/505 455/692/506 474/728/525
f 475/729/526 456/694/507 441/670/490
f 430/655/479 441/670/490 456/694/507
f 474/728/525 455/692/506 457/730/508
f 464/710/515 457/695/508 423/643/470
f 423/643/470 411/625/457 464/710/515
f 432/657/481 444/731/493 434/659/483
f 476/732/527 445/677/494 444/676/493
f 458/697/509 445/677/494 476/732/527
f 465/711/516 459/713/510 466/716/517
f 465/711/516 468/719/519 460/699/511
f 448/682/497 461/702/512 477/733/528
f 450/686/529 419/685/529 470/721/521
f 469/720/520 450/686/499 470/721/521
f 440/669/489 449/700/498 478/734/530
f 469/720/520 470/721/521 473/727/524
f 472/724/523 440/669/489 478/734/530
f 479/735/531 452/689/503 471/723/522
f 461/702/512 452/689/503 479/735/531
f 472/724/523 478/734/530 480/736/532
f 479/735/531 471/723/522 474/728/525
f 441/670/490 472/724/523 475/729/526
f 463/708/514 456/694/507 475/729/526
f 481/737/533 432/709/481 463/708/514
f 432/709/481 481/737/533 444/738/493
f 482/739/534 466/716/517 467/718/518
f 465/711/516 466/716/517 483/740/535
f 467/717/518 448/682/497 484/741/536
f 468/719/519 465/711/516 483/740/535
f 468/719/519 483/740/535 478/734/530
f 449/700/498 468/719/519 478/734/530
f 477/733/528 484/741/536 448/682/497
f 461/702/512 479/735/531 477/733/528
f 485/742/537 479/735/531 474/728/525
f 475/729/526 472/724/523 480/736/532
f 485/742/537 474/728/525 486/743/538
f 474/728/525 457/730/508 486/743/538
f 486/744/538 457/695/508 464/710/515
f 487/745/539 464/710/515 433/658/482
f 433/658/482 458/697/509 487/745/539
f 467/717/518 484/741/536 488/746/540
f 483/740/535 466/716/517 482/739/534
f 488/747/540 489/748/541 467/718/518
f 489/748/541 482/739/534 467/718/518
f 480/736/532 478/734/530 483/740/535
f 490/749/542 477/733/528 479/735/531
f 479/735/531 485/742/537 491/750/543
f 491/750/543 485/742/537 486/743/538
f 475/729/526 481/737/533 463/708/514
f 481/737/533 492/751/544 444/738/493
f 493/752/545 494/753/546 458/697/509
f 476/732/527 493/752/545 458/697/509
f 492/754/544 493/752/545 476/732/527
f 444/676/493 492/754/544 476/732/527
f 487/745/539 458/697/509 494/753/546
f 483/740/535 482/739/534 495/755/547
f 496/756/548 484/741/536 477/733/528
f 488/747/540 495/755/547 489/748/541
f 489/748/541 495/755/547 482/739/534
f 496/756/548 477/733/528 490/749/542
f 483/740/535 495/755/547 480/736/532
f 480/736/532 495/755/547 497/757/549
f 490/749/542 479/735/531 491/750/543
f 480/736/532 497/757/549 498/758/550
f 475/729/526 480/736/532 498/758/550
f 475/729/526 498/758/550 481/737/533
f 491/759/543 486/744/538 464/710/515
f 491/759/543 464/710/515 487/745/539
f 481/737/533 498/758/550 492/751/544
f 496/756/548 499/760/551 484/741/536
f 484/741/536 499/760/551 488/746/540
f 495/755/547 488/747/540 500/761/552
f 500/761/552 488/747/540 499/762/551
f 496/756/548 490/749/542 501/763/553
f 497/757/549 495/755/547 500/761/552
f 501/763/553 490/749/542 491/750/543
f 497/757/549 500/761/552 498/758/550
f 493/764/545 498/758/550 500/761/552
f 501/763/553 491/750/543 487/765/539
f 501/763/553 487/765/539 494/766/546
f 492/751/544 498/758/550 493/764/545
f 499/760/551 496/756/548 502/767/554
f 502/767/554 496/756/548 501/763/553
f 500/761/552 499/762/551 502/768/554
f 494/766/546 502/767/554 501/763/553
f 500/761/552 502/768/554 493/764/545
f 502/768/554 494/769/546 493/764/545
