# Blender v2.91.0 OBJ File: ''
# www.blender.org
mtllib two_triangles.mtl
o Plane
v -1.004850 -0.987688 -0.121440
v 0.512646 -0.703293 -0.191239
v -0.111601 0.755014 0.226013
v 0.605685 1.015034 0.121968
vt 0.000000 0.000000
vt 1.000000 0.000000
vt 1.000000 1.000000
vt 1.000000 1.000000
vn 0.0892 -0.2385 0.9670
vn 0.2068 -0.1863 0.9605
usemtl None
s off
f 1/1/1 2/2/1 3/3/1
f 2/2/2 4/4/2 3/3/2
